<?xml version="1.0" standalone="no"?>
<!DOCTYPE svg PUBLIC "-//W3C//DTD SVG 1.1//EN" "http://www.w3.org/Graphics/SVG/1.1/DTD/svg11.dtd" >
<!--
2016-6-22: Created.
-->
<svg xmlns="http://www.w3.org/2000/svg">
<metadata>
Created by FontForge 20120731 at Wed Jun 22 15:47:12 2016
 By root
Created by root with FontForge 2.0 (http://fontforge.sf.net)
</metadata>
<defs>
<font id="Flaticon" horiz-adv-x="512" >
  <font-face 
    font-family="Flaticon"
    font-weight="500"
    font-stretch="normal"
    units-per-em="512"
    panose-1="2 0 6 3 0 0 0 0 0 0"
    ascent="448"
    descent="-64"
    bbox="0 -64 512 448"
    underline-thickness="25.6"
    underline-position="-51.2"
    unicode-range="U+0020-F11D"
  />
    <missing-glyph />
    <glyph glyph-name="space" unicode=" " horiz-adv-x="200" 
 />
    <glyph glyph-name="uniF101" unicode="&#xf101;" 
d="M163.062 291.689c0 51.2441 41.6904 92.9336 92.9346 92.9336s92.9336 -41.6895 92.9336 -92.9336c0 -25.165 -9.83984 -54.2119 -26.3203 -77.6982c-18.71 -26.6641 -42.3672 -41.3477 -66.6133 -41.3477c-24.2471 0 -47.9043 14.6836 -66.6143 41.3467
c-16.4805 23.4873 -26.3203 52.5332 -26.3203 77.6992zM255.996 368.484c-42.3447 0 -76.7949 -34.4502 -76.7949 -76.7949c0 -21.6465 8.96387 -47.8672 23.3926 -68.4287c15.376 -21.9111 34.8398 -34.4775 53.4023 -34.4775s38.0273 12.5664 53.4023 34.4775
c14.4287 20.5625 23.3916 46.7832 23.3916 68.4287c0 42.3438 -34.4502 76.7949 -76.7939 76.7949zM325.343 190.664c27.1709 -12.9336 50.167 -33.1699 66.499 -58.5205c16.7764 -26.0371 25.6445 -56.2471 25.6445 -87.3623v-0.129883
c0 -2.27832 -0.961914 -4.44824 -2.64941 -5.97852c-43.5674 -39.5107 -99.9795 -61.2705 -158.847 -61.2705s-115.28 21.7588 -158.849 61.2705c-1.68652 1.53027 -2.64844 3.70117 -2.64844 5.97852v0.129883c0 31.1152 8.87109 61.3252 25.6514 87.3633
c16.3369 25.3486 39.334 45.584 66.5068 58.5195c3.0791 1.4668 6.75195 0.836914 9.16797 -1.57422c18.0391 -17.9961 38.8447 -27.5088 60.1719 -27.5088c21.3232 0 42.1348 9.5127 60.1836 27.5107c2.41797 2.40918 6.08789 3.03906 9.16797 1.57227zM255.992 -6.45801
c53.6475 0 105.104 19.3916 145.316 54.6875c-0.626953 26.7891 -8.55762 52.71 -23.0322 75.1729c-13.708 21.2715 -32.6221 38.5439 -54.9307 50.2217c-20.1816 -18.4609 -43.3594 -28.1826 -67.3535 -28.1826c-23.9971 0 -47.1729 9.72266 -67.3428 28.1826
c-22.3115 -11.6777 -41.2275 -28.9502 -54.9365 -50.2217c-14.4775 -22.4648 -22.4102 -48.3857 -23.0381 -75.1729c40.2109 -35.2959 91.668 -54.6875 145.317 -54.6875zM489.647 185.582c14.6221 -22.6914 22.3516 -49.0205 22.3525 -76.1396v-0.112305
c0 -2.27832 -0.961914 -4.44824 -2.64941 -5.97852c-22.2148 -20.1484 -49.0342 -35.4355 -77.5576 -44.209c-0.790039 -0.243164 -1.58984 -0.358398 -2.37598 -0.358398c-3.44922 0 -6.64258 2.22949 -7.70996 5.69922c-1.31055 4.25977 1.08105 8.77539 5.34082 10.0859
c25.1318 7.73145 48.834 20.9561 68.7656 38.3408c-0.626953 22.7822 -7.41699 44.8174 -19.7314 63.9297c-11.6133 18.0234 -27.585 32.6953 -46.418 42.7002c-17.5215 -15.8164 -37.6084 -24.1416 -58.4121 -24.1416c-12.3662 0 -24.5244 2.94629 -36.1377 8.75684
c-3.98633 1.99414 -5.60059 6.8418 -3.60547 10.8281c1.99512 3.98535 6.83984 5.59863 10.8271 3.60547c9.34961 -4.67871 19.0781 -7.05078 28.915 -7.05078c18.1445 0 35.874 8.11719 51.2734 23.4717c2.41602 2.40918 6.08789 3.03906 9.16797 1.57227
c23.6797 -11.2715 43.7207 -28.9082 57.9551 -51zM140.406 221.538c-21.2871 0 -42.0146 12.834 -58.3633 36.1357c-14.3389 20.4375 -22.9004 45.7305 -22.9004 67.6582c0 44.8096 36.4541 81.2646 81.2637 81.2646c21.1504 0 41.1816 -8.08691 56.4023 -22.7705
c3.20703 -3.09375 3.29883 -8.20215 0.204102 -11.4092c-3.09375 -3.20898 -8.20312 -3.29785 -11.4092 -0.205078c-12.1973 11.7666 -28.249 18.2461 -45.1973 18.2461c-35.9092 0 -65.124 -29.2139 -65.124 -65.125c0 -18.457 7.65332 -40.8301 19.9717 -58.3877
c13.0498 -18.5996 29.5068 -29.2666 45.1523 -29.2666c6.01758 0 12.1143 1.5127 18.1201 4.49707c3.99121 1.9834 8.83496 0.356445 10.8184 -3.63574c1.98242 -3.99023 0.354492 -8.83398 -3.63574 -10.8174c-8.25879 -4.10352 -16.7705 -6.18457 -25.3027 -6.18457z
M65.6709 82.0176c4.0918 -1.76465 5.97852 -6.5127 4.21484 -10.6064c-1.31543 -3.05078 -4.28906 -4.87695 -7.41406 -4.87695c-1.06641 0 -2.14941 0.212891 -3.19141 0.662109c-20.7617 8.94922 -39.8164 21.2207 -56.6318 36.4717
c-1.68652 1.53027 -2.64844 3.70117 -2.64844 5.97852v0.110352c0 27.0508 7.71191 53.3154 22.3018 75.9551c14.2012 22.0352 34.1934 39.626 57.8145 50.8711c3.08105 1.4668 6.75195 0.836914 9.16895 -1.57324c15.3496 -15.3125 33.0244 -23.4062 51.1123 -23.4062
c9.91309 0 19.709 2.41211 29.1143 7.16895c3.97852 2.01172 8.83301 0.418945 10.8438 -3.55859c2.01172 -3.97852 0.417969 -8.83203 -3.55859 -10.8438c-11.6855 -5.90918 -23.9316 -8.90625 -36.3994 -8.90625c-20.748 0 -40.7793 8.2998 -58.252 24.0762
c-18.7744 -9.97656 -34.6982 -24.6055 -46.2773 -42.5723c-12.2832 -19.0586 -19.0537 -41.0273 -19.6807 -63.7432c14.8271 -12.9463 31.457 -23.4365 49.4834 -31.207zM75.1602 70.332c2.65332 6.40234 12.3066 6.61035 14.8965 -0.00195312
c1.56641 -3.70996 0.0117188 -8.12402 -3.47266 -10.0977c-6.54688 -3.70703 -14.2969 3.16797 -11.4238 10.0996zM90.0566 70.3301c0.204102 -0.484375 -0.194336 0.495117 0 0v0zM326.39 372.211c-3.20898 -3.09473 -8.31836 -3.00293 -11.4111 0.204102
c-3.09473 3.20703 -3.00293 8.31641 0.204102 11.4102c15.2217 14.6836 35.252 22.7705 56.4023 22.7705c44.8086 0 81.2637 -36.4551 81.2637 -81.2646c0 -21.9277 -8.56055 -47.2207 -22.8994 -67.6582c-16.3496 -23.3027 -37.0781 -36.1357 -58.3643 -36.1357
c-8.53223 0 -17.0449 2.08105 -25.3037 6.18457c-3.99023 1.98438 -5.61816 6.82715 -3.63477 10.8174c1.98242 3.99219 6.8252 5.62012 10.8184 3.63574c6.00586 -2.98438 12.1025 -4.49707 18.1201 -4.49707c15.6445 0 32.1025 10.667 45.1523 29.2656
c12.3203 17.5596 19.9727 39.9316 19.9727 58.3887c0 35.9102 -29.2139 65.125 -65.124 65.125c-16.9482 0 -33 -6.47949 -45.1963 -18.2461z" />
    <glyph glyph-name="uniF100" unicode="&#xf100;" 
d="M201.737 311.222c0 60.9297 49.5703 110.5 110.5 110.5s110.5 -49.5703 110.5 -110.5c0 -29.9707 -11.7227 -64.5693 -31.3604 -92.5537c-22.2529 -31.7109 -50.3584 -49.1748 -79.1406 -49.1748s-56.8877 17.4639 -79.1396 49.1748
c-19.6367 27.9844 -31.3594 62.583 -31.3594 92.5537zM312.236 403.703c-50.9941 0 -92.4814 -41.4873 -92.4814 -92.4814c0 -26.0117 10.7627 -57.5117 28.0908 -82.2041c18.5088 -26.377 41.9785 -41.5059 64.3906 -41.5059s45.8809 15.1289 64.3906 41.5059
c17.3262 24.6924 28.0908 56.1904 28.0908 82.2041c0 50.9941 -41.4873 92.4814 -92.4814 92.4814zM474.161 120.069c19.9971 -31.0342 30.5664 -67.043 30.5664 -104.131v-0.15625c0 -2.54199 -1.07422 -4.96582 -2.95605 -6.6748
c-51.9873 -47.1426 -119.3 -73.1074 -189.54 -73.1074s-137.554 25.9639 -189.538 73.1094c-1.88281 1.70801 -2.95703 4.13086 -2.95703 6.67383v0.15625c0 37.0869 10.5723 73.0947 30.5742 104.131c19.4727 30.2148 46.8848 54.3359 79.2725 69.7539
c3.43945 1.6377 7.53809 0.93457 10.2363 -1.75684c21.6943 -21.6465 46.7344 -33.0869 72.4121 -33.0869c25.6748 0 50.7207 11.4414 72.4277 33.0879c2.69824 2.68945 6.7959 3.39355 10.2354 1.75488c32.3867 -15.418 59.7969 -39.5391 79.2666 -69.7539z
M312.231 -45.9814c64.4121 0 126.197 23.3252 174.436 65.7598c-0.700195 32.2617 -10.2256 63.4854 -27.6543 90.5322c-16.5352 25.6611 -39.3828 46.4727 -66.335 60.4912c-24.0918 -22.165 -51.7842 -33.8408 -80.4463 -33.8408
c-28.668 0 -56.3555 11.6738 -80.4346 33.8398c-26.9541 -14.0205 -49.8037 -34.832 -66.3408 -60.4912c-17.4326 -27.0488 -26.96 -58.2705 -27.6602 -90.5312c48.2383 -42.4336 110.023 -65.7598 174.436 -65.7598zM174.544 227.968
c-25.2422 0 -49.8447 15.251 -69.2744 42.9434c-17.0752 24.3369 -27.2705 54.4473 -27.2705 80.5449c0 53.2344 43.3096 96.5439 96.5449 96.5439c25.127 0 48.9248 -9.60742 67.0078 -27.0537c3.58105 -3.4541 3.68262 -9.1582 0.227539 -12.7393
c-3.4541 -3.58008 -9.15918 -3.68164 -12.7393 -0.227539c-14.7051 14.1885 -34.0586 22.002 -54.4961 22.002c-43.2998 0 -78.5264 -35.2266 -78.5264 -78.5254c0 -22.1982 9.19727 -49.0967 24.001 -70.1963c15.7285 -22.416 35.6016 -35.2734 54.5234 -35.2734
c7.29785 0 14.6846 1.83203 21.9551 5.44629c4.45703 2.21387 9.86426 0.397461 12.0781 -4.05762s0.397461 -9.8623 -4.05859 -12.0771c-9.78223 -4.86426 -19.8672 -7.33008 -29.9727 -7.33008zM84.9121 59.8838c4.57031 -1.9707 6.67676 -7.27051 4.70703 -11.8398
c-1.46973 -3.40918 -4.79102 -5.44727 -8.27832 -5.44727c-1.19043 0 -2.39941 0.236328 -3.56152 0.738281c-24.7637 10.6748 -47.4912 25.3115 -67.5508 43.5029c-1.88184 1.70801 -2.95605 4.13086 -2.95605 6.6748v0.131836c0 32.2266 9.18652 63.5166 26.5674 90.4873
c16.9189 26.2529 40.7373 47.2109 68.8789 60.6084c3.43652 1.63672 7.53809 0.935547 10.2354 -1.75586c18.4805 -18.4355 39.7744 -28.1797 61.5801 -28.1797c11.957 0 23.7686 2.90723 35.1084 8.6416c4.44141 2.24512 9.86035 0.46582 12.1064 -3.97363
c2.24512 -4.44141 0.46582 -9.86035 -3.97363 -12.1064c-13.8838 -7.02148 -28.4326 -10.582 -43.2402 -10.582c-24.7803 0 -48.7129 9.97754 -69.5674 28.9297c-22.7246 -11.9873 -41.9922 -29.6357 -55.9805 -51.3418
c-14.8066 -22.9746 -22.9463 -49.4736 -23.6475 -76.8633c17.8418 -15.6182 37.8633 -28.2676 59.5723 -37.625zM110.57 50.1904c3.10156 -2.14453 4.54492 -6.16113 3.52637 -9.79102c-1.08008 -3.85059 -4.66309 -6.60254 -8.6709 -6.60254
c-3.59766 0 -6.95117 2.23047 -8.32422 5.56152c-1.5127 3.66895 -0.393555 8.06543 2.74219 10.5195c3.10156 2.42676 7.49121 2.54785 10.7266 0.3125z" />
    <glyph glyph-name="uniF114" unicode="&#xf114;" 
d="M503.61 94.6602c4.63379 0 8.38965 -3.75684 8.38965 -8.38965v-132.921c0 -4.63379 -3.75488 -8.38965 -8.38965 -8.38965h-143.557c-4.63379 0 -8.38965 3.75586 -8.38965 8.38965v132.922c0 4.63379 3.75586 8.38965 8.38965 8.38965h6.52441v35.2363
c0 14.4844 4.75098 27.8779 12.7666 38.7168c-6.33301 4.56836 -13.0029 8.68652 -19.9453 12.2988c-22.417 -20.6357 -48.2002 -31.5068 -74.9023 -31.5068c-26.6885 0 -52.4756 10.8711 -74.9121 31.5078c-25.0977 -13.0508 -46.3721 -32.4307 -61.7676 -56.3262
c-16.2275 -25.1865 -25.0967 -54.2617 -25.748 -84.3057c44.9229 -39.5176 102.455 -61.2383 162.427 -61.2383c7.89941 0 15.9199 0.381836 23.835 1.1377c4.62109 0.443359 8.70801 -2.94336 9.14746 -7.55664s-2.94238 -8.70801 -7.55469 -9.14746
c-8.44336 -0.804688 -16.998 -1.21289 -25.4268 -1.21289c-65.3994 0 -128.078 24.1787 -176.49 68.083c-1.75293 1.58984 -2.75488 3.84766 -2.75488 6.21484v0.144531c0 34.5381 9.84082 68.0693 28.4609 96.9688c18.1279 28.1387 43.6514 50.5977 73.8096 64.9512
c3.2002 1.52637 7.01758 0.871094 9.52832 -1.63281c20.2168 -20.1553 43.5391 -30.8086 67.4463 -30.8086c23.9199 0 47.2363 10.6523 67.4316 30.8047c2.5127 2.50684 6.33008 3.16309 9.53125 1.63672c10.4346 -4.96484 20.3633 -10.9551 29.6191 -17.8223
c11.1758 8.96387 25.3447 14.3447 40.7529 14.3447c17.4365 0 33.8242 -6.78906 46.1455 -19.1172c12.3213 -12.3213 19.1084 -28.7061 19.1084 -46.1367v-35.2354h6.52441zM383.357 129.895v-35.2354h96.9492v35.2354c0 12.9482 -5.04004 25.1191 -14.1953 34.2744
c-9.15332 9.15723 -21.3271 14.2002 -34.2793 14.2002c-26.7285 0 -48.4746 -21.7451 -48.4746 -48.4746v0zM495.221 -38.2637v116.145h-126.777v-116.145h126.777zM181.601 311.674c0 56.7393 46.1582 102.897 102.896 102.897
c56.7373 0 102.897 -46.1592 102.897 -102.897c0 -27.9082 -10.916 -60.127 -29.2021 -86.1855c-20.7217 -29.5293 -46.8926 -45.791 -73.6953 -45.791c-26.8018 0 -52.9746 16.2617 -73.6943 45.791c-18.2852 26.0586 -29.2021 58.2773 -29.2021 86.1855zM284.497 397.793
c-47.4863 0 -86.1182 -38.6318 -86.1201 -86.1191c0 -24.2227 10.0234 -53.5537 26.1582 -76.5479c17.2383 -24.5625 39.0918 -38.6494 59.9609 -38.6494c20.8701 0 42.7246 14.0869 59.9609 38.6494c16.1348 22.9941 26.1582 52.3252 26.1582 76.5479
c0 47.4863 -38.6328 86.1191 -86.1182 86.1191zM338.77 -17.8232c3.06055 -2.10352 4.44824 -6.03906 3.27734 -9.58691c-1.12305 -3.39941 -4.37891 -5.76367 -7.96582 -5.76367c-3.42773 0 -6.59375 2.17578 -7.81543 5.37305
c-1.28125 3.35254 -0.270508 7.21484 2.5 9.49902c2.81543 2.32129 6.90918 2.5 9.95312 0.512695c-0.102539 0.0693359 -0.183594 0.124023 0.0273438 -0.0146484c0.211914 -0.144531 0.12793 -0.0898438 0.0234375 -0.0195312zM93.834 69.3096
c4.42871 -1.36133 6.91406 -6.05664 5.55273 -10.4844c-1.11035 -3.60742 -4.42969 -5.9248 -8.01562 -5.9248c-0.817383 0 -1.64941 0.120117 -2.4707 0.37207c-31.6807 9.74414 -61.4688 26.7246 -86.1465 49.1045c-1.75293 1.59082 -2.75391 3.84863 -2.75391 6.21484
v0.125977c0 30.083 8.57422 59.292 24.7959 84.4658c15.791 24.5098 38.0254 44.0752 64.2959 56.5811c3.20215 1.52539 7.01855 0.87207 9.53027 -1.63379c17.2637 -17.2148 37.1543 -26.3145 57.5234 -26.3145c11.0479 0 21.9717 2.66406 32.4668 7.91602
c4.14453 2.07324 9.18262 0.395508 11.2568 -3.74902c2.07324 -4.14355 0.394531 -9.18262 -3.74805 -11.2559c-12.8486 -6.42969 -26.2988 -9.68945 -39.9766 -9.68945c-23.1387 0 -45.4863 9.31641 -64.96 27.0107c-21.2227 -11.1943 -39.2207 -27.6777 -52.2852 -47.9521
c-13.8252 -21.4561 -21.4238 -46.2021 -22.0742 -71.7842c22.3047 -19.5068 48.8516 -34.3418 77.0088 -43.0029zM155.771 234.148c-23.5059 0 -46.415 14.2012 -64.5068 39.9863c-15.9023 22.6621 -25.3945 50.7012 -25.3945 75.0029
c0 49.5723 40.3301 89.9023 89.9014 89.9023c23.4004 0 45.5596 -8.94629 62.3984 -25.1904c3.33398 -3.2168 3.42969 -8.52734 0.211914 -11.8623c-3.21582 -3.33301 -8.52734 -3.43066 -11.8613 -0.211914c-13.6953 13.2109 -31.7168 20.4863 -50.749 20.4863
c-40.3193 0 -73.123 -32.8027 -73.123 -73.1221c0 -20.6709 8.56445 -45.7178 22.3496 -65.3672c14.6475 -20.874 33.1533 -32.8467 50.7734 -32.8467c6.7959 0 13.6738 1.70703 20.4453 5.07227c4.14941 2.06152 9.18457 0.370117 11.2461 -3.77832
c2.0625 -4.14941 0.370117 -9.18457 -3.77832 -11.2471c-9.11133 -4.52832 -18.5029 -6.82422 -27.9131 -6.82422z" />
    <glyph glyph-name="uniF115" unicode="&#xf115;" 
d="M503.722 107.186c4.57227 0 8.27734 -3.70605 8.27832 -8.27734v-142.356c0 -4.57031 -3.70508 -8.27637 -8.27734 -8.27637h-173.805c-4.57227 0 -8.27734 3.70605 -8.27734 8.27637v142.355c0 4.57129 3.70508 8.27734 8.27734 8.27734h21.4072v40.8711
c0 3.57129 2.29102 6.73926 5.68262 7.85938c3.38574 1.12109 7.11621 -0.0615234 9.24414 -2.93164l33.9346 -45.7988h25.5068c-14.9521 31.7695 -39.7598 57.5967 -71.1182 73.8779c-22.126 -20.3604 -47.5645 -31.085 -73.8984 -31.085
c-26.3301 0 -51.7705 10.7246 -73.9053 31.085c-24.7598 -12.877 -45.75 -31.9951 -60.9385 -55.5703c-16.0088 -24.8477 -24.7588 -53.5332 -25.4023 -83.1729c44.3213 -38.9873 101.08 -60.417 160.245 -60.417c4.57227 0 8.27734 -3.70605 8.27734 -8.27637
c0 -4.57129 -3.70508 -8.27734 -8.27734 -8.27734c-64.5195 0 -126.356 23.8535 -174.119 67.168c-1.72949 1.56934 -2.71777 3.79688 -2.71777 6.13184v0.143555c0 34.0742 9.70898 67.1562 28.0781 95.666c17.8848 27.7607 43.0645 49.9189 72.8174 64.0801
c3.15918 1.50488 6.92383 0.859375 9.40137 -1.61133c19.9453 -19.8857 42.9551 -30.3955 66.54 -30.3955c23.5898 0 46.5938 10.5098 66.5273 30.3926c2.47949 2.47168 6.24512 3.11914 9.40234 1.61426c39.5869 -18.8398 70.3584 -51.1484 87.1953 -91.3525h59.9209z
M495.445 -35.1699v125.802h-99.4287c-2.62207 0 -5.08789 1.24219 -6.64941 3.34961l-21.4893 29.001v-24.0742c0 -4.57031 -3.70508 -8.27637 -8.27734 -8.27637h-21.4072v-125.802h157.252zM356.4 47.4141c0 4.57129 3.70508 8.27734 8.27734 8.27734h104.282
c4.57227 0 8.27734 -3.70605 8.27734 -8.27734c0 -4.57031 -3.70508 -8.27637 -8.27734 -8.27637h-104.282c-4.57227 0 -8.27734 3.70605 -8.27734 8.27637zM468.96 15.9648c4.57227 0 8.27734 -3.70605 8.27734 -8.27734s-3.70508 -8.27637 -8.27734 -8.27637h-104.282
c-4.57227 0 -8.27734 3.70508 -8.27734 8.27637s3.70508 8.27734 8.27734 8.27734h104.282zM179.162 310.069c0 55.9756 45.5391 101.516 101.515 101.516c55.9766 0 101.517 -45.54 101.517 -101.517c0 -27.5332 -10.7695 -59.3193 -28.8115 -85.0283
c-20.4424 -29.1318 -46.2627 -45.1758 -72.7051 -45.1758c-26.4414 0 -52.2627 16.0439 -72.7051 45.1758c-18.0391 25.709 -28.8096 57.4951 -28.8096 85.0293zM280.677 395.031c-46.8477 0 -84.9609 -38.1143 -84.9629 -84.9629
c0 -23.8975 9.88867 -52.835 25.8066 -75.5195c17.0049 -24.2324 38.5664 -38.1309 59.1553 -38.1309c20.5898 0 42.1514 13.8984 59.1553 38.1309c15.9189 22.6846 25.8086 51.623 25.8086 75.5205c0 46.8477 -38.1143 84.9619 -84.9629 84.9619zM304.756 -16.8496
c3.4668 0.176758 6.70801 -1.91699 8.04785 -5.09961c1.47168 -3.47656 0.253906 -7.65234 -2.77637 -9.86328c-2.75684 -2.01074 -6.625 -2.08691 -9.46094 -0.19043c-2.98633 1.99805 -4.38184 5.85254 -3.32129 9.29004c1.02051 3.30957 4.0459 5.68652 7.51074 5.86328z
M312.804 -21.9492c0.210938 -0.496094 -0.208984 0.49707 0 0v0zM92.5732 70.958c4.36914 -1.34375 6.82129 -5.97461 5.47754 -10.3428c-1.09473 -3.55859 -4.37012 -5.8457 -7.9082 -5.8457c-0.805664 0 -1.62695 0.118164 -2.43652 0.367188
c-31.2559 9.61328 -60.6426 26.3662 -84.9893 48.4453c-1.72949 1.56934 -2.7168 3.79688 -2.7168 6.13184v0.123047c0 29.6797 8.45898 58.4971 24.4629 83.333c15.5791 24.1807 37.5156 43.4834 63.4326 55.8213c3.16016 1.50391 6.92285 0.859375 9.40332 -1.6123
c17.0312 -16.9844 36.6543 -25.9609 56.749 -25.9609c10.9004 0 21.6777 2.62793 32.0322 7.80957c4.08789 2.0459 9.05957 0.390625 11.1055 -3.69824c2.04492 -4.08789 0.389648 -9.05957 -3.69824 -11.1055c-12.6758 -6.34375 -25.9453 -9.55957 -39.4404 -9.55957
c-22.8281 0 -44.874 9.19238 -64.0859 26.6484c-20.9385 -11.0439 -38.6953 -27.3057 -51.584 -47.3086c-13.6387 -21.168 -21.1357 -45.5811 -21.7783 -70.8203c22.0059 -19.2451 48.1963 -33.8809 75.9746 -42.4258zM153.681 233.584
c-23.1914 0 -45.792 14.0098 -63.6416 39.4502c-15.6885 22.3574 -25.0537 50.0195 -25.0537 73.9961c0 48.9062 39.7891 88.6943 88.6953 88.6943c23.084 0 44.9463 -8.82617 61.5586 -24.8525c3.29004 -3.17285 3.38379 -8.41211 0.209961 -11.7021
c-3.17188 -3.28906 -8.41309 -3.38477 -11.7031 -0.209961c-13.5107 13.0342 -31.29 20.2119 -50.0654 20.2119c-39.7793 0 -72.1416 -32.3623 -72.1416 -72.1406c0 -20.3936 8.44922 -45.1035 22.0498 -64.4893c14.4502 -20.5938 32.708 -32.4053 50.0918 -32.4053
c6.7041 0 13.4902 1.68359 20.1699 5.00391c4.09375 2.0332 9.06055 0.365234 11.0957 -3.72852c2.03418 -4.09277 0.365234 -9.06055 -3.72852 -11.0947c-8.98828 -4.46777 -18.2539 -6.7334 -27.5371 -6.7334z" />
    <glyph glyph-name="uniF112" unicode="&#xf112;" 
d="M181.626 311.692c0 56.7471 46.165 102.912 102.911 102.912s102.913 -46.167 102.913 -102.912c0 -27.9121 -10.918 -60.1357 -29.2061 -86.1992c-20.7246 -29.5332 -46.9004 -45.7969 -73.7061 -45.7969c-26.8047 0 -52.9805 16.2637 -73.7051 45.7969
c-18.2891 26.0635 -29.207 58.2871 -29.207 86.1992zM284.538 397.823c-47.4922 0 -86.1309 -38.6377 -86.1309 -86.1309c0 -24.2256 10.0254 -53.5625 26.1621 -76.5596c17.2393 -24.5654 39.0967 -38.6553 59.9688 -38.6553c20.873 0 42.7314 14.0898 59.9697 38.6553
c16.1377 22.9971 26.1621 52.332 26.1621 76.5596c0 47.4922 -38.6387 86.1309 -86.1318 86.1309zM328.387 -23.6953c0.0888672 -0.222656 0.0566406 -0.147461 0.0126953 -0.0419922c1.21484 -3.08398 0.572266 -6.76074 -1.83691 -9.09863
c-3.15039 -3.24512 -8.70801 -3.24121 -11.8584 0c-3.24219 3.14844 -3.24316 8.71094 0 11.8594c3.14746 3.23828 8.70996 3.24316 11.8584 0c0.771484 -0.749023 1.37109 -1.6748 1.79492 -2.6582c-0.0380859 0.0947266 -0.0585938 0.146484 0.0292969 -0.0605469z
M93.8467 69.293c4.42871 -1.36133 6.91504 -6.05664 5.55371 -10.4863c-1.11035 -3.6084 -4.43066 -5.92578 -8.01758 -5.92578c-0.817383 0 -1.64941 0.119141 -2.46973 0.37207c-31.6865 9.74609 -61.4785 26.7285 -86.1602 49.1113
c-1.75293 1.59082 -2.75293 3.84863 -2.75293 6.21582v0.125977c0 30.0889 8.5752 59.3008 24.8008 84.4795c15.7949 24.5137 38.0312 44.082 64.3057 56.5898c3.20312 1.52246 7.01855 0.870117 9.53125 -1.63477c17.2666 -17.2178 37.1602 -26.3174 57.5312 -26.3174
c11.0508 0 21.9766 2.66309 32.4727 7.91602c4.14355 2.07422 9.18359 0.396484 11.2578 -3.74902c2.07324 -4.14355 0.395508 -9.18359 -3.74902 -11.2578c-12.8496 -6.43066 -26.3008 -9.69141 -39.9824 -9.69141c-23.1416 0 -45.4922 9.31836 -64.9688 27.0156
c-21.2275 -11.1963 -39.2285 -27.6816 -52.293 -47.96c-13.8281 -21.459 -21.4277 -46.208 -22.0791 -71.7939c22.3076 -19.5098 48.8584 -34.3477 77.0195 -43.0098zM155.795 234.155c-23.5088 0 -46.4219 14.2031 -64.5156 39.9922
c-15.9053 22.665 -25.3984 50.708 -25.3984 75.0146c0 49.5791 40.3359 89.915 89.915 89.915c23.4023 0 45.5664 -8.94824 62.4062 -25.1953c3.33594 -3.21582 3.43066 -8.52832 0.212891 -11.8633c-3.2168 -3.33398 -8.5293 -3.42871 -11.8633 -0.211914
c-13.6973 13.2129 -31.7227 20.4902 -50.7559 20.4902c-40.3262 0 -73.1338 -32.8086 -73.1338 -73.1338c0 -20.6738 8.56543 -45.7256 22.3525 -65.376c14.6484 -20.8779 33.1572 -32.8516 50.7803 -32.8516c6.7959 0 13.6758 1.70703 20.4473 5.07227
c4.15039 2.06152 9.18652 0.370117 11.248 -3.7793c2.06348 -4.14941 0.370117 -9.18457 -3.7793 -11.248c-9.1123 -4.52832 -18.5049 -6.8252 -27.916 -6.8252zM428.977 142.868c47.0605 -7.94727 83.0225 -48.9883 83.0234 -98.2744
c0 -54.958 -44.7129 -99.6709 -99.6719 -99.6709s-99.6719 44.7119 -99.6719 99.6709c0 52.9883 41.5645 96.4453 93.8018 99.4941c-13.2637 15.0381 -29.2158 27.5703 -46.999 36.8281c-22.4248 -20.6445 -48.2119 -31.5195 -74.9111 -31.5195
c-26.6973 0 -52.4883 10.875 -74.9238 31.5225c-25.1025 -13.0596 -46.3828 -32.4443 -61.7832 -56.3438c-16.2314 -25.1924 -25.1035 -54.2725 -25.7559 -84.3184c44.9219 -39.5166 102.466 -61.2373 162.461 -61.2373c3.8252 0 7.69043 0.0888672 11.4883 0.264648
c4.61914 0.21875 8.55371 -3.36621 8.76758 -7.99609c0.211914 -4.62793 -3.36621 -8.55371 -7.99609 -8.76758c-4.05273 -0.1875 -8.17773 -0.28125 -12.2598 -0.28125c-65.4238 0 -128.117 24.1777 -176.528 68.0811c-1.75293 1.59082 -2.75293 3.84863 -2.75293 6.21582
v0.145508c0 34.542 9.84473 68.0781 28.4688 96.9854c18.1328 28.1416 43.6621 50.6084 73.8252 64.9697c3.20215 1.52734 7.02051 0.87207 9.5332 -1.63477c20.2158 -20.1641 43.541 -30.8223 67.4541 -30.8223c23.916 0 47.2373 10.6582 67.4414 30.8203
c2.51172 2.50684 6.33008 3.16113 9.5332 1.63672c26.667 -12.6963 49.9092 -31.9424 67.4561 -55.7686zM412.327 -38.2949c45.7061 0 82.8906 37.1836 82.8906 82.8887c0 45.7061 -37.1846 82.8906 -82.8906 82.8906s-82.8906 -37.1846 -82.8906 -82.8906
c0 -45.7051 37.1846 -82.8887 82.8906 -82.8887zM481.758 67.3516c0.986328 -3.03809 0.163086 -6.37305 -2.12305 -8.59961l-27.5664 -26.8701l6.50781 -37.9424c0.539062 -3.14844 -0.754883 -6.32812 -3.33887 -8.20605
c-1.46094 -1.0625 -3.19238 -1.60352 -4.93262 -1.60352c-1.33496 0 -2.6748 0.318359 -3.90332 0.963867l-34.0742 17.9131l-34.0732 -17.9131c-2.82715 -1.4873 -6.25293 -1.23828 -8.83594 0.638672c-2.58398 1.87598 -3.87793 5.05762 -3.33789 8.20605l6.50781 37.9414
l-27.5664 26.8711c-2.28711 2.22852 -3.11035 5.56348 -2.12402 8.60059c0.987305 3.03809 3.6123 5.25195 6.77344 5.70996l38.0947 5.53613l17.0371 34.5205c1.41406 2.86426 4.33008 4.67773 7.52441 4.67773s6.11035 -1.81348 7.52441 -4.67773l17.0381 -34.5205
l38.0947 -5.53613c3.16113 -0.458008 5.78613 -2.67188 6.77344 -5.70996zM437.196 40.8174l18.5537 18.082l-25.6367 3.72559c-2.7334 0.397461 -5.09473 2.11426 -6.31738 4.58984l-11.4658 23.2305l-11.4648 -23.2305
c-1.22266 -2.47656 -3.58398 -4.19238 -6.31738 -4.58984l-25.6367 -3.72559l18.5508 -18.082c1.97754 -1.92773 2.87891 -4.70605 2.41309 -7.42773l-4.37988 -25.5322l22.9287 12.0547c1.22266 0.641602 2.56445 0.962891 3.9043 0.962891
c1.34082 0 2.68164 -0.321289 3.9043 -0.962891l22.9307 -12.0547l-4.37988 25.5322c-0.467773 2.72168 0.43457 5.5 2.41309 7.42773z" />
    <glyph glyph-name="uniF113" unicode="&#xf113;" 
d="M180.459 310.924c0 56.3818 45.8691 102.251 102.25 102.252c56.3809 0 102.251 -45.8701 102.251 -102.252c0 -27.7324 -10.8486 -59.749 -29.0195 -85.6436c-20.5898 -29.3438 -46.5977 -45.5039 -73.2314 -45.5039c-26.6328 0 -52.6406 16.1602 -73.2314 45.5039
c-18.1709 25.8945 -29.0186 57.9111 -29.0186 85.6436zM282.709 396.501c-47.1865 0 -85.5762 -38.3896 -85.5781 -85.5781c0 -24.0703 9.95898 -53.2178 25.9941 -76.0664c17.1279 -24.4082 38.8447 -38.4072 59.583 -38.4072c20.7393 0 42.4561 13.999 59.584 38.4072
c16.0332 22.8486 25.9941 51.9961 25.9941 76.0664c0 47.1875 -38.3896 85.5781 -85.5771 85.5781zM372.007 -11.748c0.0771484 -0.200195 0.0615234 -0.166992 0.0273438 -0.0830078c1.55176 -4.07129 -0.183594 -8.75391 -4.16797 -10.6436
c-3.82422 -1.81348 -8.54883 -0.370117 -10.7158 3.25293c-2.0625 3.44824 -1.31152 8.01172 1.73633 10.6201c3.22559 2.75977 8.3252 2.62695 11.3076 -0.445312c0.761719 -0.737305 1.35449 -1.65137 1.77441 -2.62109
c-0.0322266 0.0810547 -0.0429688 0.110352 0.0380859 -0.0800781zM93.2432 70.082c4.40039 -1.35352 6.87012 -6.01855 5.51758 -10.4189c-1.10254 -3.58496 -4.40137 -5.8877 -7.96484 -5.8877c-0.813477 0 -1.63867 0.119141 -2.45508 0.370117
c-31.4814 9.68262 -61.083 26.5566 -85.6055 48.7959c-1.74121 1.58105 -2.73535 3.82422 -2.73535 6.17578v0.125c0 29.8955 8.52051 58.9209 24.6406 83.9365c15.6924 24.3555 37.7861 43.7979 63.8926 56.2256c3.18262 1.5127 6.97559 0.865234 9.4707 -1.62402
c17.1543 -17.1074 36.9209 -26.1484 57.1602 -26.1484c10.9805 0 21.8359 2.64648 32.2646 7.86523c4.11719 2.06055 9.12598 0.392578 11.1855 -3.72461s0.392578 -9.125 -3.72461 -11.1855c-12.7676 -6.38965 -26.1328 -9.62891 -39.7266 -9.62891
c-22.9932 0 -45.1982 9.25879 -64.5498 26.8408c-21.0908 -11.123 -38.9766 -27.5029 -51.957 -47.6504c-13.7393 -21.3213 -21.29 -45.9111 -21.9375 -71.333c22.1641 -19.3848 48.5449 -34.126 76.5244 -42.7334zM154.793 233.885
c-23.3574 0 -46.1221 14.1123 -64.1016 39.7354c-15.8018 22.5195 -25.2354 50.3818 -25.2354 74.5322c0 49.2598 40.0762 89.3369 89.3369 89.3369c23.252 0 45.2725 -8.89062 62.0049 -25.0332c3.31348 -3.19531 3.4082 -8.47363 0.210938 -11.7871
c-3.19531 -3.3125 -8.47461 -3.40625 -11.7871 -0.210938c-13.6094 13.1289 -31.5176 20.3584 -50.4287 20.3584c-40.0664 0 -72.6631 -32.5967 -72.6631 -72.6631c0 -20.541 8.50977 -45.4307 22.21 -64.9561c14.5537 -20.7432 32.9434 -32.6406 50.4531 -32.6406
c6.75293 0 13.5879 1.69629 20.3164 5.04004c4.12402 2.04883 9.12695 0.368164 11.1758 -3.75488c2.0498 -4.12305 0.368164 -9.12598 -3.75488 -11.1758c-9.05469 -4.49902 -18.3867 -6.78125 -27.7373 -6.78125zM444.784 226.4
c37.0625 0 67.2148 -30.1523 67.2158 -67.2139v-144.866c0 -4.60449 -3.73145 -8.33691 -8.33691 -8.33691s-8.33691 3.73242 -8.33691 8.33691v144.866c0 27.8682 -22.6729 50.541 -50.54 50.541c-27.8691 0 -50.54 -22.6729 -50.54 -50.541v-158.159
c0 -20.8672 16.9746 -37.8418 37.8408 -37.8418s37.8408 16.9766 37.8408 37.8418v127.49c0 13.2266 -10.7607 23.9873 -23.9873 23.9873s-23.9873 -10.7607 -23.9873 -23.9873v-114.197c0 -4.60449 -3.73242 -8.33691 -8.33691 -8.33691
c-4.60547 0 -8.33691 3.73242 -8.33691 8.33691v114.197c0 22.4199 18.2412 40.6611 40.6611 40.6611c22.4209 0 40.6611 -18.2412 40.6611 -40.6611v-127.49c0 -30.0605 -24.4551 -54.5156 -54.5146 -54.5156s-54.5146 24.4561 -54.5146 54.5156v158.158
c0 2.95312 0.211914 5.85352 0.582031 8.70605c-6.64844 4.88477 -13.6797 9.27148 -21.0107 13.0889c-22.2832 -20.5049 -47.9053 -31.3076 -74.4287 -31.3076c-26.5205 0 -52.1455 10.8027 -74.4404 31.3096c-24.9404 -12.9697 -46.085 -32.2266 -61.3857 -55.9717
c-16.1279 -25.0293 -24.9424 -53.9209 -25.5908 -83.7744c44.6543 -39.2705 101.828 -60.8555 161.418 -60.8555c19.1992 0 38.3154 2.23145 56.8164 6.63379c4.48438 1.06738 8.97461 -1.70312 10.0391 -6.18164c1.06641 -4.47852 -1.70117 -8.97363 -6.17969 -10.04
c-19.7637 -4.70117 -40.1797 -7.08594 -60.6768 -7.08594c-64.9824 0 -127.271 24.0264 -175.393 67.6543c-1.74219 1.58008 -2.73633 3.82324 -2.73633 6.17676v0.144531c0 34.3193 9.78125 67.6396 28.2871 96.3584c18.0176 27.9609 43.3818 50.2793 73.3516 64.543
c3.18066 1.5166 6.97168 0.866211 9.46777 -1.62207c20.0898 -20.0283 43.2656 -30.6152 67.0225 -30.6152c23.7598 0 46.9307 10.585 67.0088 30.6123c2.49805 2.49023 6.28906 3.14062 9.47266 1.62402c8.18359 -3.89844 16.0645 -8.44141 23.5557 -13.5352
c10.1533 24.2607 34.1309 41.3525 62.0322 41.3525z" />
    <glyph glyph-name="uniF110" unicode="&#xf110;" 
d="M181.627 311.693c0 56.7471 46.166 102.914 102.913 102.912c56.7451 0 102.912 -46.167 102.912 -102.912c0 -27.9121 -10.918 -60.1367 -29.2061 -86.1992c-20.7246 -29.5332 -46.9004 -45.7979 -73.7061 -45.7979c-26.8066 0 -52.9824 16.2646 -73.7061 45.7979
c-18.2881 26.0625 -29.207 58.2871 -29.207 86.1992zM284.54 397.825c-47.4922 0 -86.1309 -38.6396 -86.1338 -86.1309c0 -24.2275 10.0254 -53.5625 26.1621 -76.5596c17.2402 -24.5664 39.0977 -38.6562 59.9707 -38.6562s42.7314 14.0898 59.9697 38.6562
c16.1367 22.9971 26.1621 52.332 26.1621 76.5596c0 47.4922 -38.6377 86.1309 -86.1309 86.1309zM326.564 -20.9766c0.783203 -0.759766 1.4082 -1.70703 1.8125 -2.71875c1.45117 -3.50586 0.324219 -7.67676 -2.73242 -9.94141
c-5.4209 -4.01367 -13.418 -0.0537109 -13.4004 6.73047c0.0195312 7.22656 9.18457 11.2197 14.3203 5.92969zM328.377 -23.6953c0.212891 -0.515625 -0.201172 0.503906 0 0v0zM93.8477 69.293c4.42969 -1.36328 6.91504 -6.05664 5.55371 -10.4863
c-1.11035 -3.60742 -4.43066 -5.92578 -8.01758 -5.92578c-0.816406 0 -1.64844 0.120117 -2.46973 0.373047c-31.6855 9.74512 -61.4785 26.7275 -86.1592 49.1113c-1.75391 1.59082 -2.75488 3.84863 -2.75488 6.21582v0.125c0 30.0889 8.5752 59.3018 24.7998 84.4805
c15.7939 24.5137 38.0312 44.082 64.3057 56.5898c3.20312 1.52441 7.01758 0.871094 9.53125 -1.63477c17.2676 -17.2178 37.1602 -26.3184 57.5322 -26.3184c11.0508 0 21.9756 2.66406 32.4717 7.91699c4.14258 2.07227 9.18555 0.394531 11.2578 -3.74902
c2.07324 -4.14453 0.395508 -9.18457 -3.74805 -11.2588c-12.8496 -6.43066 -26.3018 -9.69043 -39.9834 -9.69043c-23.1396 0 -45.4912 9.31836 -64.9688 27.0146c-21.2266 -11.1953 -39.2275 -27.6816 -52.293 -47.959
c-13.8271 -21.459 -21.4268 -46.208 -22.0781 -71.7949c22.3086 -19.5098 48.8594 -34.3467 77.0205 -43.0098zM155.796 234.154c-23.5098 0 -46.4219 14.2051 -64.5166 39.9932c-15.9043 22.665 -25.3984 50.708 -25.3984 75.0137c0 49.5791 40.3359 89.916 89.915 89.916
c23.4023 0 45.5654 -8.94824 62.4062 -25.1953c3.33496 -3.21582 3.42969 -8.52832 0.211914 -11.8633c-3.21582 -3.33496 -8.52832 -3.43066 -11.8633 -0.211914c-13.6963 13.2129 -31.7207 20.4893 -50.7549 20.4893c-40.3262 0 -73.1338 -32.8076 -73.1338 -73.1338
c0 -20.6729 8.56543 -45.7236 22.3535 -65.376c14.6484 -20.877 33.1572 -32.8516 50.7803 -32.8516c6.7959 0 13.6748 1.70801 20.4463 5.07324c4.15137 2.0625 9.18555 0.370117 11.248 -3.7793c2.06348 -4.14941 0.371094 -9.18555 -3.77832 -11.248
c-9.1123 -4.5293 -18.5059 -6.82617 -27.916 -6.82617zM428.978 142.869c47.0605 -7.94824 83.0225 -48.9893 83.0225 -98.2754c0 -54.958 -44.7129 -99.6699 -99.6719 -99.6699c-54.96 0 -99.6719 44.7109 -99.6719 99.6699c0 52.9893 41.5654 96.4463 93.8027 99.4941
c-13.2656 15.0391 -29.2168 27.5713 -47.001 36.8291c-22.4248 -20.6445 -48.2139 -31.5205 -74.9121 -31.5205c-26.6973 0 -52.4873 10.876 -74.9238 31.5225c-25.1025 -13.0596 -46.3818 -32.4443 -61.7832 -56.3428
c-16.2305 -25.1934 -25.1035 -54.2725 -25.7549 -84.3193c44.9219 -39.5156 102.467 -61.2373 162.462 -61.2373c3.82617 0 7.69043 0.0888672 11.4873 0.264648c4.66504 0.201172 8.55566 -3.36816 8.76855 -7.99609
c0.213867 -4.62793 -3.36523 -8.55371 -7.99414 -8.76758c-4.05371 -0.186523 -8.17969 -0.28125 -12.2607 -0.28125c-65.4229 0 -128.116 24.1777 -176.527 68.082c-1.75391 1.59082 -2.75488 3.84863 -2.75488 6.21582v0.145508c0 34.542 9.84473 68.0781 28.4717 96.9834
c18.1328 28.1426 43.6611 50.6084 73.8242 64.9697c3.20508 1.52637 7.01855 0.87207 9.53223 -1.63477c20.2158 -20.1641 43.542 -30.8213 67.4541 -30.8213c23.916 0 47.2354 10.6582 67.4414 30.8203c2.5127 2.50586 6.33105 3.16211 9.5332 1.63672
c26.667 -12.6953 49.9092 -31.9414 67.4561 -55.7676zM412.329 -38.2949c45.7051 0 82.8896 37.1846 82.8906 82.8887c0 45.7061 -37.1846 82.8906 -82.8906 82.8906s-82.8906 -37.1846 -82.8906 -82.8906c0 -45.7041 37.1846 -82.8887 82.8906 -82.8887zM475.439 52.9834
c4.63477 0 8.39062 -3.75488 8.39062 -8.39062c0 -4.63379 -3.75488 -8.39062 -8.39062 -8.39062h-54.7197v-54.7197c0 -4.63379 -3.75586 -8.39062 -8.39062 -8.39062s-8.39062 3.75684 -8.39062 8.39062v54.7197h-54.7197c-4.63574 0 -8.3916 3.75684 -8.3916 8.39062
s3.75586 8.39062 8.3916 8.39062h54.7197v54.7217c0 4.63379 3.75586 8.39062 8.39062 8.39062s8.39062 -3.75684 8.39062 -8.39062v-54.7217h54.7197z" />
    <glyph glyph-name="uniF111" unicode="&#xf111;" 
d="M181.626 311.693c0 56.7471 46.166 102.912 102.912 102.912s102.913 -46.167 102.913 -102.912c0 -27.9121 -10.918 -60.1367 -29.207 -86.1992c-20.7236 -29.5332 -46.8994 -45.7979 -73.7051 -45.7979s-52.9814 16.2646 -73.7051 45.7979
c-18.29 26.0625 -29.208 58.2871 -29.208 86.1992zM284.539 397.824c-47.4922 0 -86.1318 -38.6377 -86.1318 -86.1309c0 -24.2266 10.0254 -53.5625 26.1631 -76.5596c17.2383 -24.5664 39.0957 -38.6562 59.9688 -38.6562s42.7314 14.0898 59.9697 38.6562
c16.1377 22.9971 26.1621 52.332 26.1621 76.5596c0 47.4922 -38.6387 86.1309 -86.1318 86.1309zM328.387 -23.6953c0.0898438 -0.222656 0.0585938 -0.148438 0.0136719 -0.0429688c2.46387 -6.24805 -3.2207 -12.9824 -9.82617 -11.2979
c-6.10742 1.55566 -8.48438 9.58008 -3.87012 14.0596c3.14844 3.23828 8.71094 3.24316 11.8594 0c0.770508 -0.749023 1.37012 -1.6748 1.79395 -2.6582c-0.0371094 0.0947266 -0.0576172 0.146484 0.0292969 -0.0605469zM93.8467 69.292
c4.42871 -1.36133 6.91504 -6.05664 5.55371 -10.4854c-1.11035 -3.60742 -4.43066 -5.92578 -8.01758 -5.92578c-0.817383 0 -1.64844 0.120117 -2.46973 0.373047c-31.6855 9.74512 -61.4785 26.7275 -86.1602 49.1113
c-1.75293 1.59082 -2.75293 3.84863 -2.75293 6.21582v0.125c0 30.0879 8.5752 59.3018 24.8008 84.4795c15.7949 24.5127 38.0312 44.0811 64.3057 56.5889c3.20215 1.52344 7.02051 0.871094 9.53223 -1.63379c17.2656 -17.2178 37.1592 -26.3184 57.5312 -26.3184
c11.0498 0 21.9756 2.66406 32.4717 7.91699c4.14453 2.07324 9.18555 0.394531 11.2588 -3.74902c2.07227 -4.14453 0.394531 -9.18457 -3.74902 -11.2588c-12.8506 -6.43066 -26.3018 -9.69043 -39.9824 -9.69043c-23.1416 0 -45.4932 9.31836 -64.9697 27.0146
c-21.2275 -11.1953 -39.2285 -27.6816 -52.293 -47.959c-13.8281 -21.459 -21.4277 -46.209 -22.0791 -71.7949c22.3076 -19.5098 48.8594 -34.3467 77.0195 -43.0098zM155.795 234.155c-23.5088 0 -46.4219 14.2041 -64.5156 39.9932
c-15.9043 22.665 -25.3984 50.708 -25.3984 75.0137c0 49.5801 40.3359 89.916 89.915 89.916c23.4023 0 45.5664 -8.94824 62.4072 -25.1953c3.33496 -3.21582 3.42969 -8.52832 0.212891 -11.8633c-3.2168 -3.33398 -8.53027 -3.42871 -11.8643 -0.211914
c-13.6963 13.2139 -31.7217 20.4902 -50.7559 20.4902c-40.3262 0 -73.1338 -32.8086 -73.1338 -73.1338c0 -20.6738 8.56543 -45.7256 22.3535 -65.377c14.6475 -20.877 33.1562 -32.8506 50.7793 -32.8506c6.79688 0 13.6758 1.70703 20.4473 5.07227
c4.15137 2.06152 9.18652 0.370117 11.248 -3.7793c2.06348 -4.14941 0.371094 -9.18555 -3.77832 -11.248c-9.1123 -4.5293 -18.5059 -6.82617 -27.917 -6.82617zM428.978 142.868c47.0605 -7.94824 83.0225 -48.9883 83.0225 -98.2754
c0 -54.958 -44.7129 -99.6709 -99.6719 -99.6709c-54.958 0 -99.6709 44.7119 -99.6709 99.6709c0 52.9883 41.5645 96.4463 93.8018 99.4941c-13.2637 15.0391 -29.2158 27.5713 -46.999 36.8291c-22.4248 -20.6445 -48.2129 -31.5205 -74.9121 -31.5205
c-26.6973 0 -52.4883 10.876 -74.9238 31.5225c-25.1025 -13.0596 -46.3828 -32.4443 -61.7822 -56.3428c-16.2324 -25.1924 -25.1045 -54.2725 -25.7568 -84.3193c44.9219 -39.5166 102.466 -61.2373 162.462 -61.2373c3.8252 0 7.69043 0.0888672 11.4873 0.264648
c4.61719 0.21875 8.55469 -3.36719 8.76758 -7.99609s-3.36621 -8.55371 -7.99512 -8.76758c-4.05371 -0.1875 -8.17871 -0.28125 -12.2598 -0.28125c-65.4238 0 -128.117 24.1777 -176.529 68.082c-1.75293 1.59082 -2.75293 3.84766 -2.75293 6.21582v0.145508
c0 34.541 9.84473 68.0771 28.4697 96.9844c18.1328 28.1426 43.6621 50.6084 73.8242 64.9697c3.20215 1.52734 7.02051 0.873047 9.5332 -1.63379c20.2168 -20.165 43.542 -30.8223 67.4551 -30.8223c23.916 0 47.2363 10.6572 67.4414 30.8193
c2.51172 2.50781 6.33105 3.16211 9.5332 1.63672c26.667 -12.6953 49.9092 -31.9414 67.4561 -55.7676zM412.328 -38.2959c45.7061 0 82.8906 37.1836 82.8906 82.8887c0 45.7061 -37.1846 82.8906 -82.8906 82.8906c-45.7051 0 -82.8896 -37.1846 -82.8896 -82.8906
c0 -45.7051 37.1836 -82.8887 82.8896 -82.8887zM462.889 95.1533c3.27637 -3.27637 3.27637 -8.58984 0 -11.8652l-38.6943 -38.6943l38.6943 -38.6934c3.27637 -3.27539 3.27637 -8.58887 0 -11.8652c-1.6377 -1.63965 -3.78613 -2.45801 -5.93262 -2.45801
c-2.14746 0 -4.2959 0.820312 -5.93359 2.45801l-38.6934 38.6934l-38.6934 -38.6934c-1.6377 -1.63965 -3.78613 -2.45801 -5.93262 -2.45801c-2.14746 0 -4.29492 0.820312 -5.93359 2.45801c-3.27637 3.27539 -3.27637 8.58887 0 11.8652l38.6943 38.6934
l-38.6943 38.6943c-3.27637 3.27539 -3.27637 8.58887 0 11.8652c3.27637 3.27734 8.58887 3.27734 11.8662 0l38.6934 -38.6934l38.6934 38.6934c3.27637 3.27734 8.58887 3.27734 11.8662 0z" />
    <glyph glyph-name="uniF10E" unicode="&#xf10e;" 
d="M218.018 199.186c-28.3906 0 -56.1172 17.2275 -78.0684 48.5088c-19.3721 27.6055 -30.9365 61.7363 -30.9365 91.3008c0 60.1055 48.9004 109.005 109.005 109.005c60.1064 0 109.005 -48.8994 109.004 -109.005c0 -29.5645 -11.5645 -63.6953 -30.9355 -91.3008
c-21.9512 -31.2812 -49.6758 -48.5088 -78.0684 -48.5088zM218.018 430.226c-50.3037 0 -91.2295 -40.9268 -91.2295 -91.2305c0 -25.6592 10.6182 -56.7324 27.7109 -81.0908c18.2588 -26.0195 41.4102 -40.9434 63.5186 -40.9434s45.2607 14.9238 63.5186 40.9434
c17.0938 24.3584 27.7109 55.4297 27.7109 81.0908c0 50.3037 -40.9258 91.2305 -91.2295 91.2305zM263.857 -16.1807c0.09375 -0.233398 0.0615234 -0.158203 0.015625 -0.0478516c2.56543 -6.51367 -3.22754 -13.5908 -10.1787 -12.0166
c-6.61621 1.49902 -9.29785 10.1211 -4.3291 14.9434c3.33691 3.4375 9.22363 3.43359 12.5605 0c0.816406 -0.791992 1.45215 -1.77344 1.90137 -2.81543c-0.0410156 0.100586 -0.0634766 0.15625 0.0302734 -0.0634766zM450.037 133.179
c21.8223 -21.8223 33.8398 -50.8359 33.8418 -81.6973c0 -30.8604 -12.0166 -59.874 -33.8398 -81.6963c-22.5225 -22.5244 -52.1094 -33.7852 -81.6963 -33.7852c-29.5859 0 -59.1729 11.2607 -81.6963 33.7852c-45.0479 45.0488 -45.0479 118.346 0 163.394
c16.4248 16.4258 36.6113 26.833 57.8096 31.2803c-13.501 14.5928 -29.4951 26.8535 -47.085 36.0176c-23.7637 -21.8691 -51.0801 -33.3877 -79.3555 -33.3877c-28.2812 0 -55.5938 11.5176 -79.3486 33.3877c-26.5908 -13.833 -49.1318 -34.3623 -65.4443 -59.6729
c-17.1963 -26.6826 -26.5957 -57.4814 -27.2871 -89.3037c47.5889 -41.8633 108.538 -64.874 172.078 -64.874c3.43164 0 6.89844 0.0673828 10.3037 0.199219c4.89551 0.194336 9.03418 -3.63086 9.22559 -8.53516c0.19043 -4.90527 -3.63086 -9.03418 -8.53613 -9.22559
c-3.63477 -0.140625 -7.33398 -0.212891 -10.9932 -0.212891c-69.2891 0 -135.692 25.6133 -186.978 72.123c-1.85742 1.68457 -2.91602 4.07617 -2.91602 6.58398v0.15332c0 36.5859 10.4297 72.1055 30.1621 102.721c19.208 29.8027 46.249 53.5967 78.2002 68.8086
c3.39355 1.61816 7.43652 0.923828 10.0986 -1.73242c21.4004 -21.3564 46.1016 -32.6445 71.4326 -32.6445c25.3281 0 50.0342 11.2891 71.4473 32.6465c2.66113 2.6543 6.70215 3.34766 10.0957 1.73242c25.5918 -12.1836 48.4111 -30.2305 66.2705 -52.3389
c30.4189 0.65625 61.0479 -10.5645 84.21 -33.7256zM454.319 98.0781c-3.05859 5.625 -6.68945 10.9658 -10.8574 15.9561l-62.3096 -62.3096l13.4072 -13.4072zM430.885 126.596c-5.03027 4.19531 -10.3867 7.80469 -15.9814 10.832l-59.7266 -59.7266l13.4062 -13.4072z
M378.022 29.7158l-31.4482 31.4482l-15.165 -46.6123zM437.468 -17.6465c18.4658 18.4648 28.6338 43.0156 28.6318 69.1279c0 9.94824 -1.48633 19.665 -4.33398 28.9092l-60.9258 -60.9258c-0.990234 -0.992188 -2.20215 -1.7334 -3.53516 -2.16797l-77 -25.0498
c-0.902344 -0.293945 -1.8291 -0.436523 -2.74805 -0.436523c-2.32031 0 -4.5918 0.910156 -6.28516 2.60352c-2.36426 2.36523 -3.20215 5.85449 -2.16797 9.03418l25.0508 77.001c0.433594 1.33301 1.17676 2.54395 2.16797 3.53418l60.8691 60.8691
c-9.38477 2.88379 -19.1162 4.34473 -28.8525 4.34473c-25.0361 0 -50.0664 -9.52734 -69.127 -28.5879c-38.1182 -38.1172 -38.1182 -100.139 0 -138.256c38.1172 -38.1162 100.139 -38.1162 138.256 0z" />
    <glyph glyph-name="uniF10F" unicode="&#xf10f;" 
d="M181.627 311.693c0 56.7471 46.166 102.914 102.913 102.912c56.7451 0 102.912 -46.167 102.912 -102.912c0 -27.9121 -10.918 -60.1367 -29.2061 -86.1992c-20.7246 -29.5332 -46.9004 -45.7979 -73.7061 -45.7979c-26.8066 0 -52.9824 16.2646 -73.7061 45.7979
c-18.2881 26.0625 -29.207 58.2871 -29.207 86.1992zM284.54 397.825c-47.4922 0 -86.1309 -38.6396 -86.1338 -86.1309c0 -24.2275 10.0254 -53.5625 26.1621 -76.5596c17.2402 -24.5664 39.0977 -38.6562 59.9707 -38.6562s42.7314 14.0898 59.9697 38.6562
c16.1367 22.9971 26.1621 52.332 26.1621 76.5596c0 47.4922 -38.6377 86.1309 -86.1309 86.1309zM314.705 -20.9766c4.06738 4.18848 11.5146 2.67969 13.6719 -2.71875c2.38379 -5.75781 -2.36133 -12.1631 -8.56445 -11.5615
c-6.84082 0.666016 -10.1064 9.41895 -5.10742 14.2803zM328.377 -23.6953c0.212891 -0.515625 -0.201172 0.503906 0 0v0zM93.8477 69.293c4.42969 -1.36328 6.91504 -6.05664 5.55371 -10.4863c-1.11035 -3.60742 -4.43066 -5.92578 -8.01758 -5.92578
c-0.816406 0 -1.64844 0.120117 -2.46973 0.373047c-31.6855 9.74512 -61.4785 26.7275 -86.1592 49.1113c-1.75391 1.59082 -2.75488 3.84863 -2.75488 6.21582v0.125c0 30.0889 8.5752 59.3018 24.7998 84.4805c15.7939 24.5137 38.0312 44.082 64.3057 56.5898
c3.20215 1.52441 7.01855 0.871094 9.53125 -1.63477c17.2676 -17.2178 37.1602 -26.3184 57.5322 -26.3184c11.0508 0 21.9756 2.66406 32.4717 7.91699c4.14258 2.07227 9.18555 0.394531 11.2578 -3.74902c2.07324 -4.14453 0.395508 -9.18457 -3.74805 -11.2588
c-12.8496 -6.43066 -26.3018 -9.69043 -39.9834 -9.69043c-23.1396 0 -45.4912 9.31836 -64.9688 27.0146c-21.2266 -11.1953 -39.2275 -27.6816 -52.293 -47.959c-13.8271 -21.459 -21.4268 -46.208 -22.0781 -71.7949c22.3086 -19.5098 48.8594 -34.3467 77.0205 -43.0098
zM155.796 234.154c-23.5098 0 -46.4219 14.2051 -64.5166 39.9932c-15.9043 22.665 -25.3984 50.708 -25.3984 75.0137c0 49.5791 40.3359 89.916 89.915 89.916c23.4023 0 45.5654 -8.94824 62.4062 -25.1953c3.33496 -3.21582 3.42969 -8.52832 0.211914 -11.8633
c-3.21582 -3.33496 -8.52832 -3.43066 -11.8633 -0.211914c-13.6963 13.2129 -31.7207 20.4893 -50.7549 20.4893c-40.3262 0 -73.1338 -32.8076 -73.1338 -73.1338c0 -20.6729 8.56543 -45.7236 22.3535 -65.376c14.6484 -20.877 33.1572 -32.8516 50.7803 -32.8516
c6.7959 0 13.6748 1.70801 20.4463 5.07324c4.15137 2.0625 9.18555 0.370117 11.248 -3.7793c2.06348 -4.14941 0.371094 -9.18555 -3.77832 -11.248c-9.1123 -4.5293 -18.5059 -6.82617 -27.916 -6.82617zM428.978 142.869
c47.0605 -7.94824 83.0225 -48.9893 83.0225 -98.2754c0 -54.958 -44.7129 -99.6699 -99.6719 -99.6699c-54.96 0 -99.6719 44.7109 -99.6719 99.6699c0 52.9893 41.5654 96.4463 93.8027 99.4941c-13.2656 15.0391 -29.2168 27.5713 -47.001 36.8291
c-22.4248 -20.6445 -48.2139 -31.5205 -74.9121 -31.5205c-26.6973 0 -52.4873 10.876 -74.9238 31.5225c-25.1025 -13.0596 -46.3818 -32.4443 -61.7832 -56.3428c-16.2305 -25.1934 -25.1035 -54.2725 -25.7549 -84.3193
c44.9219 -39.5156 102.467 -61.2373 162.462 -61.2373c3.82617 0 7.69043 0.0888672 11.4873 0.264648c4.68359 0.201172 8.55566 -3.36816 8.76855 -7.99609c0.213867 -4.62793 -3.36523 -8.55371 -7.99414 -8.76758
c-4.05371 -0.186523 -8.17969 -0.28125 -12.2607 -0.28125c-65.4229 0 -128.116 24.1777 -176.527 68.082c-1.75391 1.59082 -2.75488 3.84863 -2.75488 6.21582v0.145508c0 34.542 9.84473 68.0781 28.4717 96.9834c18.1328 28.1426 43.6611 50.6084 73.8242 64.9697
c3.2041 1.52637 7.01953 0.87207 9.53223 -1.63477c20.2158 -20.1641 43.542 -30.8213 67.4541 -30.8213c23.916 0 47.2354 10.6582 67.4414 30.8203c2.5127 2.50586 6.33105 3.16211 9.5332 1.63672c26.667 -12.6953 49.9092 -31.9414 67.4561 -55.7676zM412.329 -38.2949
c45.7051 0 82.8896 37.1846 82.8906 82.8887c0 45.7061 -37.1846 82.8906 -82.8906 82.8906s-82.8906 -37.1846 -82.8906 -82.8906c0 -45.7041 37.1846 -82.8887 82.8906 -82.8887zM475.439 52.9834c4.63477 0 8.39062 -3.75488 8.39062 -8.39062
c0 -4.63379 -3.75488 -8.39062 -8.39062 -8.39062h-126.221c-4.63574 0 -8.39062 3.75684 -8.39062 8.39062s3.75488 8.39062 8.39062 8.39062h126.221z" />
    <glyph glyph-name="uniF102" unicode="&#xf102;" 
d="M407.846 235.416c5.03223 0 9.11133 -4.0791 9.11133 -9.11035v-281.195c0 -5.03125 -4.0791 -9.11035 -9.11133 -9.11035h-303.69c-5.03223 0 -9.11133 4.0791 -9.11133 9.11035v281.195c0 5.03125 4.0791 9.11035 9.11133 9.11035h22.4385v83.1777
c0 71.3555 58.0508 129.406 129.407 129.406c34.5771 0 67.0752 -13.4629 91.5098 -37.9092c24.4365 -24.4365 37.8955 -56.9307 37.8955 -91.4971v-83.1777h22.4395zM144.815 318.594v-83.1777h24.5205v83.1768c0 47.7871 38.8779 86.665 86.665 86.665
c23.166 0 44.9287 -9.01855 61.2793 -25.3936c16.3672 -16.3535 25.3838 -38.1162 25.3838 -61.2705v-83.1777h24.5205v83.1777c0 29.6982 -11.5635 57.6172 -32.5596 78.6133c-20.9932 21.0049 -48.916 32.5713 -78.624 32.5713
c-61.3086 0 -111.186 -49.877 -111.186 -111.185zM324.442 318.595c0 18.2852 -7.11914 35.4688 -20.0488 48.3877c-12.915 12.9346 -30.0986 20.0547 -48.3926 20.0547c-37.7402 0 -68.4434 -30.7041 -68.4434 -68.4434v-83.1777h136.885v83.1787zM398.735 -45.7783
v262.974h-285.47v-262.974h285.47zM376.263 -33.9463c-5.03223 0 -9.11133 4.0791 -9.11133 9.11035v195.091c0 5.03223 4.0791 9.11133 9.11133 9.11133c5.03125 0 9.11035 -4.0791 9.11035 -9.11133v-195.091c0 -5.03125 -4.0791 -9.11035 -9.11035 -9.11035z
M367.847 192.766c-0.113281 0.267578 -0.0595703 0.142578 -0.00390625 0.00878906c-1.65723 3.94043 -0.197266 8.69043 3.35645 11.0459c3.54102 2.34668 8.50781 1.95605 11.5039 -1.12988c3.51758 -3.41699 3.5166 -9.45898 0 -12.876
c-4.48145 -4.61426 -12.4043 -2.85254 -14.8545 2.94531c0.0576172 -0.133789 0.112305 -0.263672 -0.00195312 0.00585938z" />
    <glyph glyph-name="uniF10C" unicode="&#xf10c;" 
d="M256.006 182.125c-30.3389 0 -59.9658 18.4092 -83.4209 51.835c-20.7012 29.498 -33.0576 65.9697 -33.0576 97.5615c0 64.2256 52.252 116.479 116.479 116.479c64.2256 0 116.479 -52.2529 116.479 -116.479c0 -31.5918 -12.3574 -68.0635 -33.0576 -97.5615
c-23.4561 -33.4258 -53.082 -51.835 -83.4209 -51.835zM256.006 429.007c-53.7529 0 -97.4854 -43.7324 -97.4854 -97.4854c0 -27.4209 11.3467 -60.623 29.6113 -86.6514c19.5107 -27.8047 44.25 -43.751 67.874 -43.751s48.3623 15.9463 67.874 43.751
c18.2646 26.0283 29.6113 59.2305 29.6113 86.6514c0 53.7529 -43.7324 97.4854 -97.4854 97.4854zM426.689 130.028c21.0811 -32.7148 32.2227 -70.6709 32.2197 -109.764v-0.165039c0 -2.68066 -1.13184 -5.23438 -3.11621 -7.03516
c-54.7988 -49.6963 -125.753 -77.0645 -199.794 -77.0645c-74.04 0 -144.995 27.3682 -199.793 77.0645c-1.98438 1.80078 -3.11621 4.35645 -3.11621 7.03516v0.165039c0 39.0928 11.1436 77.0488 32.2285 109.765c20.5254 31.8496 49.4209 57.2764 83.5615 73.5283
c3.625 1.72754 7.94531 0.985352 10.7891 -1.85254c22.8682 -22.8174 49.2646 -34.877 76.332 -34.877c27.0635 0 53.4629 12.0596 76.3447 34.8779c2.84473 2.83496 7.16211 3.57617 10.7891 1.85059c34.1396 -16.2529 63.0312 -41.6777 83.5547 -73.5283z
M256.001 -45.0078c67.8965 0 133.024 24.5879 183.873 69.3193c-0.738281 34.0068 -10.7783 66.918 -29.1504 95.4297c-17.4287 27.0488 -41.5137 48.9873 -69.9238 63.7646c-25.3945 -23.3652 -54.585 -35.6719 -84.7988 -35.6719
c-30.2188 0 -59.4043 12.3047 -84.7861 35.6699c-28.4131 -14.7783 -52.499 -36.7158 -69.9307 -63.7637c-18.376 -28.5137 -28.4189 -61.4258 -29.1562 -95.4297c50.8477 -44.7314 115.976 -69.3184 183.873 -69.3184z" />
    <glyph glyph-name="uniF11C" unicode="&#xf11c;" 
d="M211.941 199.212c-28.3877 0 -56.1113 17.2256 -78.0596 48.5029c-19.3682 27.6035 -30.9326 61.7305 -30.9326 91.292c0 60.0986 48.8936 108.993 108.992 108.993c60.0996 0 108.994 -48.8945 108.993 -108.993c0 -29.5615 -11.5625 -63.6885 -30.9336 -91.292
c-21.9482 -31.2773 -49.6699 -48.5029 -78.0596 -48.5029zM211.941 430.227c-50.2988 0 -91.2188 -40.9209 -91.2217 -91.2197c0 -25.6572 10.6182 -56.7266 27.708 -81.083c18.2578 -26.0166 41.4062 -40.9395 63.5127 -40.9395c22.1055 0 45.2559 14.9229 63.5117 40.9395
c17.0918 24.3564 27.71 55.4258 27.71 81.083c0 50.2988 -40.9219 91.2197 -91.2207 91.2197zM302.841 -6.3457c0.0947266 -0.238281 0.0605469 -0.155273 0.0117188 -0.0400391c1.47852 -3.75586 0.303711 -8.16406 -3.00098 -10.5488
c-3.18262 -2.29883 -7.63281 -2.22656 -10.7197 0.211914c-2.77637 2.19141 -4.01074 5.93652 -3.05957 9.34766c1.00098 3.58789 4.19141 6.20215 7.90527 6.48828c3.78516 0.290039 7.3584 -1.95898 8.84277 -5.41992
c-0.046875 0.116211 -0.0800781 0.199219 0.0205078 -0.0390625zM481.041 104.015c4.90723 0 8.88574 -3.97852 8.88574 -8.88574v-150.242c0 -4.9082 -3.97754 -8.88672 -8.88574 -8.88672h-162.263c-4.90918 0 -8.88672 3.97852 -8.88672 8.88672v150.243
c0 4.90723 3.97754 8.88574 8.88672 8.88574h7.97168v40.4229c0 9.43652 1.81543 18.4512 5.08301 26.7402c-12.083 11.7471 -25.6875 21.6006 -40.5459 29.3252c-23.7627 -21.8662 -51.0781 -33.3857 -79.3516 -33.3857c-28.2783 0 -55.5879 11.5156 -79.3398 33.3838
c-26.5869 -13.8301 -49.1221 -34.3574 -65.4316 -59.665c-17.1904 -26.6768 -26.5869 -57.4746 -27.2783 -89.2949c47.5742 -41.8623 108.509 -64.8652 172.05 -64.8652c18.9932 0 37.9395 2.05078 56.3105 6.09668c4.79199 1.05762 9.53516 -1.97363 10.5908 -6.7666
c1.05664 -4.79395 -1.97461 -9.53418 -6.76758 -10.5898c-19.626 -4.32227 -39.8574 -6.51465 -60.1338 -6.51465c-69.2861 0 -135.679 25.6123 -186.946 72.1172c-1.85742 1.68457 -2.91602 4.07422 -2.91602 6.58203v0.15332c0 36.582 10.4268 72.0977 30.1523 102.709
c19.2031 29.7998 46.2393 53.5918 78.1855 68.8018c3.39551 1.61719 7.43555 0.922852 10.0977 -1.73242c21.3984 -21.3545 46.0967 -32.6416 71.4258 -32.6416c25.3252 0 50.0293 11.2881 71.4385 32.6426c2.66309 2.65234 6.70215 3.34668 10.0938 1.73242
c17.2793 -8.2207 33.1279 -18.9658 47.2041 -31.9697c13.3076 18.3418 34.8965 30.3018 59.2383 30.3018c19.5479 0 37.9219 -7.6123 51.7363 -21.4336c13.8145 -13.8145 21.4238 -32.1855 21.4238 -51.7275v-40.4229h7.97168zM344.521 144.438v-40.4229h110.774v40.4229
c0 14.7959 -5.75977 28.7031 -16.2188 39.1621c-10.46 10.4639 -24.3691 16.2256 -39.168 16.2256c-30.541 0 -55.3877 -24.8467 -55.3877 -55.3877zM327.663 -46.2285h144.49v132.471h-144.49v-132.471z" />
    <glyph glyph-name="uniF11D" unicode="&#xf11d;" 
d="M481.281 112.874c5.08984 0 9.21289 -4.125 9.21191 -9.21289v-158.448c0 -5.08789 -4.12402 -9.21289 -9.21289 -9.21289h-193.454c-5.08887 0 -9.21191 4.125 -9.21191 9.21289v158.448c0 5.08789 4.12305 9.21289 9.21191 9.21289h18.2617v38.4883
c0 3.86328 2.41016 7.31641 6.03516 8.64844c3.625 1.33398 7.69629 0.260742 10.1973 -2.68164l37.7754 -44.4551h17.8555c-16.8213 33.6553 -43.7803 61.0938 -77.3525 78.5479c-24.6357 -22.6699 -52.9521 -34.6104 -82.2637 -34.6104
c-29.3154 0 -57.627 11.9385 -82.251 34.6084c-27.5625 -14.3369 -50.9238 -35.6182 -67.8311 -61.8545c-17.8223 -27.6553 -27.5625 -59.583 -28.2773 -92.5713c49.3164 -43.3984 112.486 -67.2451 178.359 -67.2451c6.54883 0 13.1611 0.235352 19.6523 0.702148
c5.10059 0.357422 9.48633 -3.4541 9.85059 -8.52832s-3.45312 -9.48438 -8.52734 -9.84863c-6.92871 -0.498047 -13.9873 -0.750977 -20.9736 -0.750977c-71.8301 0 -140.658 26.5518 -193.806 74.7637c-1.9248 1.74609 -3.02344 4.22363 -3.02344 6.82324v0.15918
c0 37.9238 10.8096 74.7441 31.2578 106.478c19.9092 30.8936 47.9365 55.5586 81.0547 71.3262c3.51953 1.67578 7.70898 0.956055 10.4678 -1.79688c22.1826 -22.1377 47.7891 -33.8398 74.0469 -33.8398c26.2549 0 51.8662 11.7031 74.0635 33.8418
c2.75781 2.75098 6.9502 3.46973 10.4668 1.79395c42.6904 -20.3311 76.374 -54.9893 95.4492 -97.998h82.9668zM472.069 -45.5732v140.022h-116.233c-2.70215 0 -5.26953 1.1875 -7.01953 3.24707l-24.3018 28.5986v-22.6338
c0 -5.08789 -4.12402 -9.21191 -9.21289 -9.21191h-18.2617v-140.022h175.029zM317.306 46.3457c0 5.08789 4.12305 9.21289 9.21191 9.21289h116.074c5.08887 0 9.21191 -4.125 9.21191 -9.21289s-4.12305 -9.21289 -9.21191 -9.21289h-116.074
c-5.08887 0 -9.21191 4.125 -9.21191 9.21289zM442.592 11.3408c5.08887 0 9.21191 -4.125 9.21191 -9.21289s-4.12305 -9.21289 -9.21191 -9.21289h-116.074c-5.08887 0 -9.21191 4.125 -9.21191 9.21289s4.12305 9.21289 9.21191 9.21289h116.074zM218.345 190.083
c-29.4307 0 -58.1699 17.8574 -80.9238 50.2832c-20.0791 28.6152 -32.0674 63.9951 -32.0674 94.6406c0 62.3047 50.6875 112.993 112.991 112.993c62.3057 0 112.994 -50.6885 112.993 -112.993c0 -30.6455 -11.9873 -66.0254 -32.0684 -94.6406
c-22.7539 -32.4258 -51.4932 -50.2832 -80.9248 -50.2832zM218.345 429.575c-52.1436 0 -94.5664 -42.4238 -94.5684 -94.5684c0 -26.5996 11.0068 -58.8076 28.7246 -84.0576c18.9287 -26.9717 42.9258 -42.4414 65.8428 -42.4414s46.917 15.4697 65.8428 42.4414
c17.7188 25.25 28.7266 57.46 28.7266 84.0576c0 52.1445 -42.4238 94.5684 -94.5684 94.5684zM268.508 -28.4121c0.516602 -0.342773 -0.489258 0.331055 0 0v0zM268.508 -28.4121c3.4375 -2.29004 4.94336 -6.75098 3.59863 -10.6553
c-1.2627 -3.66895 -4.81348 -6.23145 -8.70801 -6.22266c-3.89648 0.0078125 -7.44141 2.54492 -8.70801 6.22266c-1.17676 3.41406 -0.191406 7.29785 2.45605 9.75195c3.06152 2.83887 7.88965 3.25 11.3613 0.90332z" />
    <glyph glyph-name="uniF118" unicode="&#xf118;" 
d="M218.025 199.211c-28.3896 0 -56.1143 17.2256 -78.0605 48.5039c-19.3691 27.6025 -30.9336 61.7305 -30.9336 91.292c0 60.0986 48.8936 108.993 108.994 108.993c60.0957 0 108.992 -48.8945 108.992 -108.993c0 -29.5615 -11.5635 -63.6895 -30.9326 -91.292
c-21.9482 -31.2783 -49.6709 -48.5039 -78.0596 -48.5039zM218.025 430.227c-50.3008 0 -91.2217 -40.9209 -91.2236 -91.2197c0 -25.6572 10.6182 -56.7275 27.71 -81.083c18.2568 -26.0176 41.4062 -40.9395 63.5117 -40.9395c22.1064 0 45.2568 14.9219 63.5127 40.9395
c17.0908 24.3555 27.708 55.4238 27.708 81.083c0 50.2988 -40.9199 91.2197 -91.2188 91.2197zM263.859 -16.1338c0.0878906 -0.220703 0.0634766 -0.166016 0.0224609 -0.0654297c1.63281 -4.17871 -0.0644531 -9.04102 -4.04688 -11.1719
c-3.93066 -2.10449 -8.93359 -0.87207 -11.4785 2.76465c-2.58789 3.69629 -1.89258 8.90332 1.52148 11.8281c3.43848 2.94531 8.86816 2.80078 12.0498 -0.476562c0.81543 -0.791992 1.4502 -1.77246 1.90039 -2.81445
c-0.0400391 0.100586 -0.0625 0.157227 0.03125 -0.0644531zM368.331 167.047c63.7012 0 115.524 -51.8213 115.526 -115.522c0 -63.7012 -51.8242 -115.524 -115.525 -115.524c-63.7002 0 -115.524 51.8232 -115.524 115.524c0 55.4941 39.334 101.969 91.5859 113.023
c-13.4873 14.5654 -29.4609 26.8057 -47.0254 35.9551c-23.7627 -21.8672 -51.0762 -33.3838 -79.3486 -33.3838c-28.2773 0 -55.5898 11.5176 -79.3389 33.3838c-26.5889 -13.8311 -49.127 -34.3594 -65.4395 -59.667
c-17.1943 -26.6797 -26.5918 -57.4756 -27.2822 -89.2939c47.584 -41.8584 108.528 -64.8662 172.061 -64.8662c3.42969 0 6.89648 0.0673828 10.3018 0.199219c4.89844 0.211914 9.03516 -3.63086 9.22461 -8.53516c0.19043 -4.9043 -3.63086 -9.0332 -8.53516 -9.22363
c-3.63379 -0.141602 -7.33203 -0.213867 -10.9912 -0.213867c-69.2812 0 -135.677 25.6113 -186.958 72.1162c-1.85645 1.68457 -2.91699 4.07617 -2.91699 6.58301v0.154297c0 36.5801 10.4287 72.0967 30.1592 102.709c19.207 29.7988 46.2441 53.5898 78.1914 68.8018
c3.39551 1.61523 7.43652 0.920898 10.0977 -1.73438c21.3975 -21.3545 46.0967 -32.6416 71.4248 -32.6416c25.3262 0 50.0303 11.2881 71.4414 32.6436c2.66016 2.65234 6.7041 3.34668 10.0957 1.73242c25.5576 -12.168 48.3506 -30.1836 66.1982 -52.2529
c0.858398 0.0185547 1.71582 0.0332031 2.57812 0.0332031zM368.331 -46.2295c53.8994 0 97.752 43.8506 97.752 97.752c0 53.9004 -43.8525 97.751 -97.752 97.751s-97.751 -43.8506 -97.751 -97.751c0 -53.9014 43.8516 -97.752 97.751 -97.752zM441.864 75.4141
c1.04492 -3.2168 0.172852 -6.74805 -2.25293 -9.1084l-29.1963 -28.458l6.8916 -40.1826c0.573242 -3.33398 -0.797852 -6.70215 -3.53418 -8.69043c-1.54785 -1.12598 -3.38086 -1.69824 -5.22461 -1.69824c-1.41309 0 -2.83301 0.336914 -4.13379 1.02051
l-36.0859 18.9717l-36.0869 -18.9717c-2.99512 -1.5752 -6.62207 -1.3125 -9.35742 0.675781c-2.73633 1.9873 -4.10742 5.35742 -3.53516 8.69141l6.8916 40.1826l-29.1963 28.458c-2.4209 2.36133 -3.29297 5.89258 -2.24805 9.10938s3.82715 5.56152 7.1748 6.04688
l40.3467 5.86328l18.043 36.5605c1.49805 3.0332 4.58691 4.95312 7.96973 4.95312s6.47168 -1.91992 7.96973 -4.95312l18.0439 -36.5605l40.3457 -5.86328c3.34863 -0.485352 6.12988 -2.83008 7.1748 -6.04688zM394.669 47.3125l19.6475 19.1504l-27.1504 3.94629
c-2.89453 0.420898 -5.39551 2.23926 -6.69141 4.86133l-12.1416 24.6025l-12.1416 -24.6025c-1.29395 -2.62305 -3.79688 -4.44043 -6.69141 -4.86133l-27.1514 -3.94629l19.6475 -19.1504c2.09375 -2.04199 3.0498 -4.9834 2.55469 -7.86621l-4.6377 -27.041
l24.2842 12.7666c1.29492 0.679688 2.71484 1.02051 4.13477 1.02051c1.4209 0 2.84082 -0.34082 4.13574 -1.02051l24.2842 -12.7666l-4.6377 27.041c-0.495117 2.88281 0.458984 5.82422 2.55469 7.86621z" />
    <glyph glyph-name="uniF119" unicode="&#xf119;" 
d="M442.059 60.4111c4.9082 0 8.88672 -3.97852 8.88672 -8.88574c0 -4.9082 -3.97852 -8.88672 -8.88672 -8.88672h-126.004l31.749 -31.748c3.46973 -3.46973 3.46973 -9.09668 0 -12.5674c-1.73535 -1.73535 -4.00977 -2.60254 -6.2832 -2.60254
c-2.27441 0 -4.54883 0.867188 -6.2832 2.60254l-46.9189 46.918c-3.46973 3.46973 -3.46973 9.09668 0 12.5674l46.9189 46.918c3.46875 3.46973 9.0957 3.46973 12.5664 0c3.46973 -3.46973 3.46973 -9.09668 0 -12.5664l-31.749 -31.749h126.004zM218.023 199.213
c-28.3887 0 -56.1113 17.2256 -78.0596 48.5029c-19.3701 27.6025 -30.9336 61.7305 -30.9336 91.291c0 60.0986 48.8945 108.993 108.993 108.993s108.993 -48.8945 108.991 -108.993c0 -29.5605 -11.5625 -63.6885 -30.9316 -91.291
c-21.9482 -31.2773 -49.6699 -48.5029 -78.0596 -48.5029zM218.023 430.228c-50.2988 0 -91.2197 -40.9219 -91.2197 -91.2207c0 -25.6562 10.6172 -56.7256 27.708 -81.082c18.2568 -26.0166 41.4062 -40.9395 63.5117 -40.9395c22.1064 0 45.2559 14.9229 63.5117 40.9395
c17.0918 24.3564 27.708 55.4238 27.708 81.082c0 50.2988 -40.9209 91.2207 -91.2197 91.2207zM263.858 -16.1309c0.0947266 -0.238281 0.0595703 -0.155273 0.0117188 -0.0400391c1.51367 -3.8291 0.24707 -8.28418 -3.14648 -10.6514
c-3.45215 -2.40723 -8.40039 -2.0293 -11.3555 1.01172c-3.43066 3.33496 -3.43555 9.22461 0 12.5596c3.33398 3.43555 9.22363 3.42969 12.5596 0c0.81543 -0.792969 1.45117 -1.77441 1.90039 -2.81543c-0.0410156 0.100586 -0.0634766 0.15625 0.0302734 -0.0644531z
M368.33 167.049c63.7002 0 115.524 -51.8242 115.524 -115.525c0 -63.7002 -51.8232 -115.523 -115.523 -115.523s-115.523 51.8232 -115.523 115.523c0 55.4941 39.334 101.968 91.585 113.022c-13.4873 14.5674 -29.4609 26.8066 -47.0254 35.9561
c-23.7607 -21.8662 -51.0742 -33.3838 -79.3477 -33.3838c-28.2773 0 -55.5869 11.5156 -79.3389 33.3838c-26.5879 -13.8311 -49.127 -34.3584 -65.4375 -59.666c-17.1943 -26.6797 -26.5928 -57.4746 -27.2832 -89.2949
c47.582 -41.8584 108.525 -64.8662 172.059 -64.8662c3.43164 0 6.89746 0.0683594 10.3027 0.199219c4.89453 0.193359 9.0332 -3.62988 9.22363 -8.53418c0.191406 -4.9043 -3.62988 -9.0332 -8.53418 -9.22461c-3.63477 -0.140625 -7.33301 -0.212891 -10.9922 -0.212891
c-69.2822 0 -135.678 25.6104 -186.957 72.1152c-1.85742 1.68457 -2.91602 4.07617 -2.91602 6.58301v0.154297c0 36.5811 10.4287 72.0977 30.1592 102.709c19.2051 29.7998 46.2441 53.5898 78.1914 68.8018c3.39355 1.61719 7.43555 0.922852 10.0967 -1.73242
c21.3984 -21.3545 46.0977 -32.6416 71.4258 -32.6416c25.3252 0 50.0283 11.2881 71.4385 32.6426c2.66211 2.65332 6.70215 3.34766 10.0957 1.73242c25.5586 -12.166 48.3516 -30.1816 66.1992 -52.251c0.857422 0.0185547 1.7168 0.0332031 2.57812 0.0332031z
M368.33 -46.2256c53.9004 0 97.751 43.8496 97.751 97.751c0 53.9004 -43.8506 97.75 -97.751 97.75s-97.751 -43.8496 -97.751 -97.75c0 -53.9014 43.8506 -97.751 97.751 -97.751z" />
    <glyph glyph-name="uniF11A" unicode="&#xf11a;" 
d="M448.341 57.8086c3.4707 -3.4707 3.4707 -9.09766 -0.000976562 -12.5674l-46.918 -46.918c-1.73438 -1.73535 -4.00977 -2.60254 -6.2832 -2.60254s-4.54883 0.868164 -6.2832 2.60254c-3.4707 3.46973 -3.4707 9.09668 0 12.5674l31.748 31.748h-126.003
c-4.90723 0 -8.88574 3.97852 -8.88574 8.88672c0 4.90723 3.97852 8.88574 8.88574 8.88574h126.004l-31.748 31.749c-3.4707 3.46875 -3.4707 9.0957 0 12.5664c3.46973 3.46973 9.09668 3.46973 12.5664 0zM218.022 199.213
c-28.3896 0 -56.1113 17.2256 -78.0596 48.5029c-19.3701 27.6025 -30.9336 61.7305 -30.9336 91.291c0 60.0986 48.8945 108.993 108.993 108.993s108.992 -48.8945 108.991 -108.993c0 -29.5605 -11.5625 -63.6885 -30.9316 -91.291
c-21.9482 -31.2773 -49.6709 -48.5029 -78.0596 -48.5029zM218.022 430.228c-50.2988 0 -91.2197 -40.9219 -91.2197 -91.2207c0 -25.6562 10.6172 -56.7256 27.708 -81.082c18.2568 -26.0166 41.4053 -40.9395 63.5117 -40.9395c22.1055 0 45.2559 14.9229 63.5117 40.9395
c17.0918 24.3564 27.708 55.4238 27.708 81.082c0 50.2988 -40.9219 91.2207 -91.2197 91.2207zM263.857 -16.1309c0.0947266 -0.238281 0.0595703 -0.155273 0.0117188 -0.0400391c1.51562 -3.83691 0.243164 -8.27832 -3.14941 -10.6514
c-3.44531 -2.41211 -8.40137 -2.02441 -11.3535 1.01172c-3.42969 3.33496 -3.43457 9.22461 0 12.5596c3.33594 3.43555 9.22363 3.43262 12.5596 0c0.816406 -0.792969 1.45215 -1.77441 1.90039 -2.81543c-0.0400391 0.100586 -0.0625 0.15625 0.03125 -0.0644531z
M368.329 167.049c63.7002 0 115.525 -51.8242 115.525 -115.525c0 -63.7002 -51.8232 -115.523 -115.523 -115.523s-115.523 51.8232 -115.523 115.523c0 55.4941 39.334 101.968 91.585 113.022c-13.4873 14.5674 -29.4609 26.8066 -47.0254 35.9561
c-23.7607 -21.8662 -51.0742 -33.3838 -79.3477 -33.3838c-28.2773 0 -55.5869 11.5156 -79.3389 33.3838c-26.5879 -13.8311 -49.127 -34.3584 -65.4375 -59.666c-17.1943 -26.6797 -26.5928 -57.4746 -27.2832 -89.2949
c47.582 -41.8584 108.525 -64.8662 172.059 -64.8662c3.43164 0 6.89746 0.0683594 10.3027 0.199219c4.89355 0.193359 9.0332 -3.62988 9.22363 -8.53418c0.191406 -4.9043 -3.62988 -9.0332 -8.53418 -9.22461c-3.63477 -0.140625 -7.33301 -0.212891 -10.9922 -0.212891
c-69.2822 0 -135.678 25.6104 -186.957 72.1152c-1.85742 1.68457 -2.91602 4.07617 -2.91602 6.58301v0.154297c0 36.5811 10.4287 72.0977 30.1592 102.709c19.2051 29.7998 46.2441 53.5898 78.1914 68.8018c3.3916 1.61719 7.43457 0.922852 10.0967 -1.73242
c21.3984 -21.3545 46.0977 -32.6416 71.4258 -32.6416c25.3252 0 50.0283 11.2881 71.4385 32.6426c2.66211 2.65332 6.70312 3.34766 10.0957 1.73242c25.5576 -12.166 48.3516 -30.1816 66.1982 -52.251c0.856445 0.0185547 1.71484 0.0332031 2.57812 0.0332031z
M368.329 -46.2256c53.9004 0 97.751 43.8496 97.751 97.751c0 53.9004 -43.8506 97.75 -97.751 97.75s-97.751 -43.8496 -97.751 -97.75c0 -53.9014 43.8506 -97.751 97.751 -97.751z" />
    <glyph glyph-name="uniF11B" unicode="&#xf11b;" 
d="M409.217 234.342c39.5049 0 71.6455 -32.1387 71.6465 -71.6445v-154.418c0 -4.9082 -3.97754 -8.88672 -8.88672 -8.88672s-8.88672 3.97852 -8.88672 8.88672v154.418c0 29.7061 -24.167 53.8721 -53.873 53.8721s-53.8721 -24.166 -53.8721 -53.8721v-168.588
c0 -22.2422 18.0938 -40.3369 40.3359 -40.3369s40.3369 18.0957 40.3369 40.3369v135.896c0 14.0986 -11.4707 25.5693 -25.5693 25.5693s-25.5693 -11.4707 -25.5693 -25.5693v-121.727c0 -4.9082 -3.97754 -8.88672 -8.88672 -8.88672s-8.88672 3.97852 -8.88672 8.88672
v121.727c0 23.8984 19.4434 43.3418 43.3428 43.3418c23.8984 0 43.3418 -19.4434 43.3418 -43.3418v-135.896c0 -32.042 -26.0684 -58.1094 -58.1094 -58.1094s-58.1084 26.0684 -58.1084 58.1094v168.588c0 3.68945 0.28125 7.31641 0.822266 10.8584
c-11.4512 10.7002 -24.2002 19.75 -38.043 26.9482c-23.7607 -21.8672 -51.0781 -33.3857 -79.3516 -33.3857c-28.2773 0 -55.5879 11.5156 -79.3389 33.3828c-26.5859 -13.8291 -49.1221 -34.3574 -65.4307 -59.6641
c-17.1914 -26.6777 -26.5869 -57.4746 -27.2783 -89.2949c47.5713 -41.8574 108.511 -64.8652 172.048 -64.8652c24.6182 0 48.9727 3.42676 72.3887 10.1836c4.71191 1.36035 9.64062 -1.35742 11.001 -6.07324s-1.35938 -9.64258 -6.0752 -11.0029
c-25.0156 -7.2207 -51.0283 -10.8809 -77.3145 -10.8809c-69.2871 0 -135.68 25.6123 -186.946 72.1172c-1.85645 1.68457 -2.91602 4.07422 -2.91602 6.58203v0.15332c0 36.582 10.4268 72.0977 30.1523 102.709c19.2051 29.7988 46.2412 53.5908 78.1875 68.8008
c3.39258 1.61816 7.43457 0.923828 10.0967 -1.73145c21.3984 -21.3555 46.0977 -32.6426 71.4258 -32.6426c25.3252 0 50.0303 11.2891 71.4395 32.6436c2.66113 2.65137 6.70215 3.3457 10.0947 1.73242c14.9814 -7.12891 28.8848 -16.1562 41.4941 -26.9053
c11.3018 24.7383 36.2617 41.9795 65.1885 41.9795zM221.006 199.212c-28.3887 0 -56.1113 17.2256 -78.0596 48.5039c-19.3691 27.6025 -30.9316 61.7305 -30.9316 91.291c0 60.0986 48.8916 108.993 108.991 108.993c60.0986 0 108.993 -48.8945 108.992 -108.993
c0 -29.5605 -11.5625 -63.6885 -30.9316 -91.291c-21.9482 -31.2783 -49.6709 -48.5039 -78.0605 -48.5039zM221.006 430.228c-50.2979 0 -91.2188 -40.9219 -91.2197 -91.2207c0 -25.6582 10.6162 -56.7266 27.708 -81.082
c18.2578 -26.0176 41.4062 -40.9395 63.5117 -40.9395c22.1064 0 45.2549 14.9219 63.5127 40.9395c17.0908 24.3555 27.708 55.4238 27.708 81.082c0 50.2988 -40.9209 91.2207 -91.2207 91.2207zM329.133 0.492188c0.224609 -0.533203 -0.212891 0.533203 0 0v0z
M320.715 5.97559c3.60156 0.0878906 7.0752 -2.11621 8.41797 -5.4834c1.60254 -3.78711 0.246094 -8.35156 -3.12598 -10.6826c-6.66797 -4.61328 -15.8477 1.7832 -13.6367 9.65723c1.04785 3.73145 4.46289 6.41504 8.34473 6.50879z" />
    <glyph glyph-name="uniF10D" unicode="&#xf10d;" 
d="M218.021 199.211c-28.3887 0 -56.1113 17.2256 -78.0605 48.5039c-19.3701 27.6025 -30.9326 61.7305 -30.9326 91.292c0 60.0986 48.8945 108.993 108.993 108.993s108.993 -48.8945 108.992 -108.993c0 -29.5615 -11.5625 -63.6895 -30.9316 -91.292
c-21.9492 -31.2783 -49.6709 -48.5039 -78.0605 -48.5039zM218.021 430.227c-50.2988 0 -91.2207 -40.9209 -91.2207 -91.2197c0 -25.6572 10.6182 -56.7275 27.708 -81.083c18.2578 -26.0176 41.4062 -40.9395 63.5127 -40.9395s45.2559 14.9219 63.5127 40.9395
c17.0918 24.3555 27.708 55.4238 27.708 81.083c0 50.2988 -40.9219 91.2197 -91.2207 91.2197zM263.856 -16.1338c0.0966797 -0.238281 0.0605469 -0.155273 0.0126953 -0.0400391c1.5166 -3.83594 0.240234 -8.28027 -3.14941 -10.6523
c-3.44629 -2.41113 -8.40234 -2.02344 -11.3535 1.01172c-2.95312 2.87012 -3.47168 7.82129 -1.10254 11.209c0.320312 0.498047 0.6875 0.948242 1.10254 1.35059c3.33496 3.43652 9.22266 3.43262 12.5596 0c0.816406 -0.791992 1.4502 -1.76953 1.90039 -2.81348
c-0.0400391 0.0996094 -0.0625 0.155273 0.0302734 -0.0654297zM368.329 167.047c63.7021 0 115.526 -51.8213 115.526 -115.522c0 -63.7002 -51.8232 -115.524 -115.524 -115.524c-63.7002 0 -115.524 51.8242 -115.524 115.524c0 55.4941 39.334 101.969 91.5859 113.023
c-13.4873 14.5664 -29.4609 26.8057 -47.0254 35.9561c-23.7617 -21.8672 -51.0752 -33.3838 -79.3477 -33.3838c-28.2783 0 -55.5889 11.5156 -79.3408 33.3838c-26.5879 -13.8311 -49.127 -34.3594 -65.4375 -59.666
c-17.1943 -26.6797 -26.5928 -57.4756 -27.2842 -89.2959c47.585 -41.8584 108.528 -64.8662 172.061 -64.8662c3.43164 0 6.89746 0.0673828 10.3027 0.199219c4.89355 0.191406 9.0332 -3.63086 9.22461 -8.53516c0.19043 -4.9043 -3.63086 -9.0332 -8.53516 -9.22363
c-3.63477 -0.141602 -7.33301 -0.213867 -10.9922 -0.213867c-69.2812 0 -135.678 25.6113 -186.957 72.1162c-1.8584 1.68457 -2.91797 4.07617 -2.91797 6.58301v0.154297c0 36.5801 10.4297 72.0967 30.1602 102.709c19.2051 29.7988 46.2441 53.5898 78.1914 68.8018
c3.39258 1.61523 7.43555 0.922852 10.0977 -1.73438c21.3984 -21.3545 46.0977 -32.6416 71.4258 -32.6416c25.3252 0 50.0293 11.2881 71.4395 32.6436c2.66113 2.6543 6.70312 3.34668 10.0947 1.73242c25.5576 -12.168 48.3525 -30.1836 66.1992 -52.2529
c0.857422 0.0185547 1.7168 0.0332031 2.57812 0.0332031zM368.329 -46.2295c53.9014 0 97.751 43.8506 97.751 97.752c0 53.9004 -43.8506 97.751 -97.751 97.751c-53.9014 0 -97.752 -43.8506 -97.752 -97.751c0 -53.9014 43.8506 -97.752 97.752 -97.752z
M442.059 60.4082c4.90723 0 8.88672 -3.97852 8.8877 -8.88574c0 -4.9082 -3.97852 -8.88672 -8.88672 -8.88672h-147.458c-4.90723 0 -8.88672 3.97852 -8.88672 8.88672c0 4.90723 3.97949 8.88574 8.88672 8.88574h147.457z" />
    <glyph glyph-name="uniF116" unicode="&#xf116;" 
d="M218.024 199.211c-28.3906 0 -56.1133 17.2256 -78.0615 48.5039c-19.3691 27.6025 -30.9326 61.7305 -30.9326 91.291c0 60.0996 48.8955 108.994 108.994 108.994c60.0977 0 108.992 -48.8945 108.992 -108.994c0 -29.5605 -11.5625 -63.6885 -30.9316 -91.291
c-21.9492 -31.2783 -49.6709 -48.5039 -78.0605 -48.5039zM218.024 430.227c-50.2998 0 -91.2207 -40.9219 -91.2217 -91.2207c0 -25.6582 10.6162 -56.7266 27.708 -81.083c18.2578 -26.0166 41.4062 -40.9395 63.5127 -40.9395c22.1055 0 45.2549 14.9229 63.5127 40.9395
c17.0898 24.3564 27.708 55.4248 27.708 81.083c0 50.2988 -40.9209 91.2207 -91.2197 91.2207zM260.598 -12.1572c3.33789 -2.29297 4.79297 -6.60938 3.38672 -10.4336c-1.31543 -3.5791 -4.88672 -5.97559 -8.70508 -5.82324
c-3.4834 0.140625 -6.63867 2.41016 -7.90527 5.65137c-1.29395 3.3125 -0.442383 7.16309 2.11816 9.62891c2.94824 2.83789 7.66504 3.29492 11.0732 0.998047c-0.113281 0.0771484 -0.214844 0.146484 0.0107422 -0.00585938
c0.231445 -0.158203 0.134766 -0.0927734 0.0214844 -0.015625zM368.331 167.046c63.7012 0 115.526 -51.8203 115.524 -115.521c0 -63.7002 -51.8232 -115.524 -115.524 -115.524s-115.524 51.8242 -115.524 115.524c0 55.4951 39.335 101.969 91.5859 113.024
c-13.4873 14.5664 -29.4609 26.8047 -47.0244 35.9541c-23.7607 -21.8662 -51.0752 -33.3838 -79.3486 -33.3838c-28.2783 0 -55.5879 11.5156 -79.3398 33.3838c-26.5889 -13.8311 -49.127 -34.3584 -65.4385 -59.666
c-17.1943 -26.6797 -26.5928 -57.4756 -27.2832 -89.2959c47.584 -41.8584 108.527 -64.8662 172.061 -64.8662c3.43164 0 6.89746 0.0673828 10.3027 0.198242c4.8916 0.192383 9.0332 -3.62988 9.22363 -8.53418s-3.62988 -9.0332 -8.53418 -9.22461
c-3.63574 -0.140625 -7.33301 -0.212891 -10.9922 -0.212891c-69.2822 0 -135.679 25.6113 -186.958 72.1162c-1.8584 1.68457 -2.91797 4.07617 -2.91797 6.58301v0.154297c0 36.5801 10.4297 72.0967 30.1602 102.709c19.2051 29.7998 46.2441 53.5908 78.1924 68.8018
c3.39258 1.61621 7.43555 0.922852 10.0967 -1.7334c21.3994 -21.3545 46.0977 -32.6416 71.4268 -32.6416c25.3252 0 50.0303 11.2881 71.4395 32.6426c2.66211 2.65332 6.70508 3.34766 10.0957 1.73242c25.5576 -12.166 48.3516 -30.1836 66.1992 -52.2529
c0.857422 0.0195312 1.7168 0.0332031 2.57812 0.0332031zM368.331 -46.2305c53.8994 0 97.752 43.8506 97.752 97.752c0 53.9004 -43.8525 97.752 -97.752 97.752s-97.752 -43.8516 -97.752 -97.752c0 -53.9014 43.8525 -97.752 97.752 -97.752zM442.061 60.4082
c4.9082 0 8.88672 -3.97949 8.88672 -8.88672c0 -4.9082 -3.97754 -8.88672 -8.88672 -8.88672h-64.8428v-64.8418c0 -4.9082 -3.97754 -8.88672 -8.88672 -8.88672s-8.88672 3.97852 -8.88672 8.88672v64.8418h-64.8428c-4.90918 0 -8.88672 3.97852 -8.88672 8.88672
c0 4.90723 3.97754 8.88672 8.88672 8.88672h64.8428v64.8428c0 4.90723 3.97754 8.88672 8.88672 8.88672s8.88672 -3.97949 8.88672 -8.88672v-64.8428h64.8428z" />
    <glyph glyph-name="uniF117" unicode="&#xf117;" 
d="M218.025 199.211c-28.3896 0 -56.1143 17.2256 -78.0605 48.5039c-19.3691 27.6025 -30.9336 61.7305 -30.9336 91.292c0 60.0986 48.8936 108.993 108.994 108.993c60.0957 0 108.992 -48.8945 108.992 -108.993c0 -29.5615 -11.5635 -63.6895 -30.9326 -91.292
c-21.9482 -31.2783 -49.6709 -48.5039 -78.0596 -48.5039zM218.025 430.227c-50.3008 0 -91.2217 -40.9209 -91.2236 -91.2197c0 -25.6572 10.6182 -56.7275 27.71 -81.083c18.2568 -26.0176 41.4062 -40.9395 63.5117 -40.9395c22.1064 0 45.2568 14.9219 63.5127 40.9395
c17.0908 24.3555 27.708 55.4238 27.708 81.083c0 50.2988 -40.9199 91.2197 -91.2188 91.2197zM255.648 -10.6475c4.15039 0 7.83398 -3.00293 8.69336 -7.05762c1.70508 -8.0332 -7.96191 -13.8711 -14.291 -8.72559c-6.35938 5.1709 -2.5752 15.7832 5.59766 15.7832z
M368.331 167.047c63.7012 0 115.524 -51.8213 115.526 -115.522c0 -63.7012 -51.8242 -115.524 -115.525 -115.524c-63.7002 0 -115.524 51.8232 -115.524 115.524c0 55.4941 39.334 101.969 91.5859 113.023c-13.4873 14.5654 -29.4609 26.8057 -47.0254 35.9551
c-23.7627 -21.8672 -51.0762 -33.3838 -79.3486 -33.3838c-28.2773 0 -55.5898 11.5176 -79.3389 33.3838c-26.5889 -13.8311 -49.127 -34.3594 -65.4395 -59.667c-17.1943 -26.6797 -26.5918 -57.4756 -27.2822 -89.2939
c47.584 -41.8584 108.528 -64.8662 172.061 -64.8662c3.42969 0 6.89648 0.0673828 10.3018 0.199219c4.91406 0.211914 9.0332 -3.63086 9.22461 -8.53516c0.19043 -4.9043 -3.63086 -9.0332 -8.53516 -9.22363c-3.63379 -0.141602 -7.33203 -0.213867 -10.9912 -0.213867
c-69.2812 0 -135.677 25.6113 -186.958 72.1162c-1.85645 1.68457 -2.91699 4.07617 -2.91699 6.58301v0.154297c0 36.5801 10.4287 72.0967 30.1592 102.709c19.207 29.7988 46.2441 53.5898 78.1914 68.8018c3.39551 1.61523 7.43652 0.920898 10.0977 -1.73438
c21.3975 -21.3545 46.0967 -32.6416 71.4248 -32.6416c25.3262 0 50.0303 11.2881 71.4414 32.6436c2.66016 2.65234 6.7041 3.34668 10.0957 1.73242c25.5576 -12.168 48.3506 -30.1836 66.1982 -52.2529c0.858398 0.0185547 1.7168 0.0332031 2.57812 0.0332031z
M368.331 -46.2295c53.8994 0 97.752 43.8506 97.752 97.752c0 53.9004 -43.8525 97.751 -97.752 97.751s-97.751 -43.8506 -97.751 -97.751c0 -53.9014 43.8516 -97.752 97.751 -97.752zM380.9 51.5225l45.8506 -45.8516c3.4707 -3.46875 3.4707 -9.0957 0 -12.5664
c-1.73535 -1.73535 -4.01074 -2.60254 -6.28418 -2.60254s-4.54883 0.868164 -6.28516 2.60254l-45.8496 45.8496l-45.8496 -45.8496c-1.73535 -1.73535 -4.01074 -2.60254 -6.28418 -2.60254s-4.54883 0.868164 -6.28418 2.60254
c-3.4707 3.46973 -3.4707 9.09668 0 12.5664l45.8506 45.8516l-45.8506 45.8506c-3.4707 3.46875 -3.4707 9.0957 0 12.5664c3.46973 3.4707 9.0957 3.4707 12.5674 0l45.8496 -45.8496l45.8496 45.8496c3.4707 3.4707 9.09668 3.4707 12.5684 0
c3.4707 -3.4707 3.4707 -9.09766 0.00195312 -12.5664z" />
    <glyph glyph-name="uniF106" unicode="&#xf106;" 
d="M407.846 235.416c5.03223 0 9.11133 -4.0791 9.11133 -9.11035v-281.195c0 -5.03125 -4.07812 -9.11035 -9.11133 -9.11035h-303.69c-5.0332 0 -9.11133 4.0791 -9.11133 9.11035v281.195c0 5.03125 4.07812 9.11035 9.11133 9.11035h22.4365v83.1777
c0 71.3555 58.0527 129.406 129.409 129.406c34.5771 0 67.0752 -13.4629 91.5098 -37.9092c24.4365 -24.4365 37.8955 -56.9307 37.8955 -91.4971v-83.1777h22.4395zM255.999 429.778c-61.3066 0 -111.186 -49.877 -111.185 -111.185v-83.1777h24.5215v83.1777
c0 47.7871 38.877 86.665 86.665 86.665c23.166 0 44.9287 -9.01953 61.2793 -25.3945c16.3652 -16.3545 25.3838 -38.1172 25.3838 -61.2705v-83.1777h24.5205v83.1777c0 29.6982 -11.5635 57.6172 -32.5605 78.6133c-20.9951 21.0049 -48.916 32.5713 -78.625 32.5713z
M324.444 318.594c0 18.2842 -7.12012 35.4688 -20.0508 48.3887c-12.915 12.9346 -30.0977 20.0547 -48.3926 20.0547c-37.7402 0 -68.4434 -30.7041 -68.4434 -68.4434v-83.1777h136.885h0.00195312v83.1777zM398.735 -45.7783v262.974h-285.47v-262.974h285.47z
M376.263 -33.9463c-5.0332 0 -9.11133 4.0791 -9.11133 9.11035v195.091c0 5.03223 4.07812 9.11133 9.11133 9.11133c5.03223 0 9.11035 -4.0791 9.11035 -9.11133v-195.091c0 -5.03125 -4.07812 -9.11035 -9.11035 -9.11035zM367.847 192.766
c-0.114258 0.269531 -0.0585938 0.139648 -0.00195312 0.00488281c-1.60352 3.81445 -0.293945 8.43555 3.06055 10.8467c3.17383 2.2832 7.53711 2.29688 10.708 0c3.16797 -2.2959 4.52734 -6.51172 3.29004 -10.2256
c-1.15723 -3.47266 -4.3252 -5.94238 -7.97461 -6.22168c-3.89648 -0.297852 -7.56641 2.01855 -9.08008 5.59082c0.0576172 -0.134766 0.112305 -0.264648 -0.00195312 0.00488281zM196.107 25.8164c-3.55762 3.55762 -3.55762 9.32617 0.00292969 12.8838l47.0078 47.0068
l-47.0078 47.0078c-3.55762 3.55859 -3.55762 9.32617 0 12.8838c3.55762 3.55859 9.32617 3.55859 12.8848 0l47.0068 -47.0059l47.0068 47.0059c3.55762 3.55859 9.3252 3.55859 12.8848 0c3.55762 -3.55762 3.55762 -9.3252 0 -12.8838l-47.0078 -47.0078
l47.0078 -47.0068c3.55762 -3.55859 3.55762 -9.32617 0 -12.8838c-1.78027 -1.78027 -4.1123 -2.66895 -6.44336 -2.66895s-4.66309 0.888672 -6.44336 2.66895l-47.0059 47.0059l-47.0068 -47.0059c-1.7793 -1.78027 -4.1123 -2.66895 -6.44336 -2.66895
s-4.66309 0.888672 -6.44336 2.66895z" />
    <glyph glyph-name="uniF107" unicode="&#xf107;" 
d="M385.564 246.733c32.6631 -32.9824 52.8691 -78.3232 52.8691 -128.3c0 -100.594 -81.8398 -182.434 -182.434 -182.434s-182.434 81.8398 -182.434 182.434c0 49.9756 20.2061 95.3174 52.8691 128.299v71.6973c0 71.4453 58.1201 129.57 129.559 129.57
c34.6221 0 67.1631 -13.4805 91.6279 -37.958c24.4668 -24.4658 37.9424 -57.002 37.9424 -91.6123v-71.6963zM144.679 318.43v-55.5684c7.71875 5.96289 15.9189 11.3301 24.5449 16.0137v39.5547c0 47.8506 38.9248 86.7812 86.7695 86.7812
c23.1943 0 44.9854 -9.03125 61.3584 -25.4336c16.3828 -16.3564 25.4121 -38.1455 25.4121 -61.3477v-39.5488c8.62891 -4.68555 16.834 -10.0547 24.5566 -16.0205v55.5693c0 29.7373 -11.5781 57.6914 -32.6006 78.7139
c-21.0195 21.0312 -48.9785 32.6123 -78.7256 32.6123c-61.3799 0 -111.314 -49.9404 -111.315 -111.326zM324.52 318.43c0 18.3223 -7.12695 35.5273 -20.0684 48.4473c-12.9375 12.959 -30.1426 20.0898 -48.457 20.0898c-37.7852 0 -68.5254 -30.7451 -68.5254 -68.5371
v-30.9346c21.1709 8.6123 44.3037 13.3721 68.5312 13.3721c24.2227 0 47.3525 -4.75781 68.5195 -13.3672v30.9297zM256 -45.7559c90.5342 0 164.189 73.6553 164.189 164.189c0 90.5332 -73.6553 164.188 -164.189 164.188
c-90.5352 0 -164.189 -73.6553 -164.189 -164.188c0 -90.5342 73.6543 -164.189 164.189 -164.189zM301.936 241.861c-3.75488 -0.0908203 -7.1875 2.18164 -8.64062 5.62695c-1.63965 3.88184 -0.255859 8.58008 3.20801 10.9658
c6.85059 4.71777 16.2695 -1.82129 14 -9.91406c-1.0752 -3.83594 -4.58203 -6.58105 -8.56738 -6.67871zM330.777 247.67c45.959 -26.6455 74.5098 -76.167 74.5098 -129.235c0 -82.3164 -66.9707 -149.287 -149.287 -149.287s-149.287 66.9707 -149.287 149.287
s66.9697 149.287 149.287 149.287c7.13672 0 14.3115 -0.507812 21.3271 -1.5127c4.98828 -0.713867 8.45215 -5.33594 7.73828 -10.3223c-0.713867 -4.9873 -5.33301 -8.45117 -10.3223 -7.73828c-6.16211 0.881836 -12.4688 1.3291 -18.7432 1.3291
c-72.2568 0 -131.043 -58.7861 -131.043 -131.043s58.7852 -131.043 131.043 -131.043s131.043 58.7852 131.043 131.043c0 46.5859 -25.0664 90.0596 -65.416 113.453c-4.35938 2.52637 -5.84473 8.10938 -3.31738 12.4668c2.52637 4.3584 8.10938 5.84277 12.4678 3.31543
z" />
    <glyph glyph-name="uniF108" unicode="&#xf108;" 
d="M218.42 53.6699c-1.57812 2.28125 -1.93652 5.19238 -0.959961 7.78906l12.7871 33.9521c-7.41699 7.00488 -11.6904 16.7568 -11.6904 27.1807c0 20.6445 16.7959 37.4414 37.4414 37.4414c20.6465 0 37.4424 -16.7969 37.4424 -37.4414
c0 -10.4258 -4.27344 -20.1768 -11.6895 -27.1807l12.7871 -33.9521c0.977539 -2.59668 0.618164 -5.50781 -0.958984 -7.78906c-1.57812 -2.28027 -4.17578 -3.6416 -6.9502 -3.6416h-61.2588c-2.77344 0 -5.37109 1.36133 -6.9502 3.6416zM256.001 143.129
c-11.3252 0 -20.54 -9.21289 -20.5352 -20.5381c0 -7.01172 3.53027 -13.4717 9.44629 -17.2793c3.34766 -2.15625 4.7373 -6.3584 3.33301 -10.085l-10.6572 -28.2959h36.8301l-10.6572 28.2959c-1.40527 3.72656 -0.015625 7.92871 3.33301 10.085
c5.91406 3.80762 9.44531 10.2676 9.44531 17.2793c0 11.3242 -9.21387 20.5381 -20.5381 20.5381zM256.001 274.06c93.2021 0 169.029 -75.8262 169.029 -169.03c0 -93.2031 -75.8262 -169.029 -169.029 -169.029s-169.03 75.8271 -169.03 169.029
c0 46.3047 18.7217 88.3145 48.9854 118.873v104.047c0 66.1963 53.8496 120.051 120.039 120.051c32.0791 0 62.2295 -12.4893 84.8965 -35.1689c22.6689 -22.6689 35.1533 -52.8135 35.1533 -84.8818v-38.0293c0 -4.66797 -3.78418 -8.45215 -8.45117 -8.45215h-39.6562
c-4.66797 0 -8.45215 3.78418 -8.45215 8.45215v38.0293c0 16.9766 -6.60254 32.918 -18.5928 44.8877c-11.9863 12.0068 -27.9287 18.6143 -44.8975 18.6143c-35.0088 0 -63.4902 -28.4863 -63.4902 -63.502v-66.2793c19.6143 7.97949 41.0488 12.3896 63.4961 12.3896z
M152.858 327.949v-89.1025c7.15137 5.52441 14.749 10.4971 22.7412 14.8369v74.2656c0 44.3369 36.0645 80.4062 80.3945 80.4062c21.4902 0 41.6797 -8.36914 56.8506 -23.5654c15.1797 -15.1543 23.5439 -35.3447 23.5439 -56.8408v-29.5781h22.7529v29.5781
c0 27.5527 -10.7275 53.4531 -30.2051 72.9307c-19.4746 19.4863 -45.3799 30.2168 -72.9414 30.2168c-56.8691 0 -103.137 -46.2715 -103.137 -103.147zM256.001 -47.0967c83.8818 0 152.126 68.2441 152.126 152.126c0 83.8828 -68.2432 152.126 -152.126 152.126
s-152.126 -68.2422 -152.126 -152.126c0 -83.8828 68.2432 -152.126 152.126 -152.126zM292.38 221.854c-0.773438 0.797852 -1.40137 1.7207 -1.82617 2.75c-1.69141 4.00586 0.106445 8.79395 3.96973 10.7539c3.90527 1.98145 8.83203 0.584961 11.0811 -3.18262
c2.22168 -3.7207 1.21094 -8.70996 -2.33887 -11.2197c-3.35742 -2.37305 -7.95215 -1.94922 -10.8857 0.898438zM290.554 224.604c-0.213867 0.506836 0.214844 -0.519531 0 0v0zM325.283 224.771c42.584 -24.6885 69.0352 -70.5703 69.0361 -119.741
c0 -76.2695 -62.0488 -138.318 -138.318 -138.318c-76.2705 0 -138.319 62.0498 -138.319 138.318s62.0488 138.319 138.319 138.319c6.61328 0 13.2607 -0.470703 19.7607 -1.40234c4.62207 -0.661133 7.83105 -4.94336 7.16992 -9.56348
c-0.661133 -4.62207 -4.94336 -7.83105 -9.56445 -7.16992c-5.70996 0.817383 -11.5518 1.23145 -17.3662 1.23145c-66.9482 0 -121.416 -54.4658 -121.416 -121.415c0 -66.9473 54.4678 -121.415 121.416 -121.415c66.9473 0 121.415 54.4678 121.415 121.415
c0 43.1631 -23.2246 83.4434 -60.6104 105.118c-4.03906 2.34082 -5.41504 7.5127 -3.07324 11.5508c2.34082 4.03809 7.51172 5.41406 11.5508 3.07227z" />
    <glyph glyph-name="uniF109" unicode="&#xf109;" 
d="M215.44 63.001c-1.7041 2.46191 -2.09082 5.60352 -1.03613 8.40625l13.8027 36.6455c-8.00586 7.55859 -12.6182 18.083 -12.6182 29.335c0 22.2822 18.1279 40.4111 40.4111 40.4111s40.4111 -18.1289 40.4111 -40.4111c0 -11.252 -4.61328 -21.7764 -12.6182 -29.335
l13.8027 -36.6455c1.05566 -2.80273 0.667969 -5.94434 -1.03516 -8.40625c-1.7041 -2.46094 -4.50781 -3.93066 -7.50195 -3.93066h-66.1172c-2.99316 0 -5.79688 1.46973 -7.50098 3.93066zM256.001 159.554c-12.2236 0 -22.166 -9.94336 -22.165 -22.167
c0 -7.56738 3.81055 -14.5391 10.1943 -18.6494c3.61426 -2.32812 5.11328 -6.8623 3.59766 -10.8857l-11.502 -30.5391h39.75l-11.502 30.5391c-1.51562 4.02344 -0.0166016 8.55957 3.59863 10.8857c6.38379 4.11035 10.1953 11.082 10.1953 18.6494
c0 12.2227 -9.94434 22.167 -22.167 22.167zM385.564 246.733c32.6641 -32.9814 52.8701 -78.3232 52.8691 -128.3c0 -100.594 -81.8398 -182.434 -182.434 -182.434s-182.434 81.8398 -182.434 182.434c0 49.9756 20.2061 95.3174 52.8691 128.299v71.6973
c0 71.4453 58.1201 129.57 129.559 129.57c34.624 0 67.165 -13.4805 91.6279 -37.958c24.4668 -24.4658 37.9424 -57.002 37.9424 -91.6123v-71.6963zM144.68 318.43v-55.5684c7.71875 5.96289 15.9189 11.3301 24.5449 16.0137v39.5547
c0 47.8506 38.9248 86.7812 86.7695 86.7812c23.1943 0 44.9854 -9.03125 61.3584 -25.4336c16.3838 -16.3555 25.4121 -38.1455 25.4121 -61.3477v-39.5488c8.62891 -4.68457 16.833 -10.0537 24.5557 -16.0195v55.5684c0 29.7373 -11.5781 57.6914 -32.6016 78.7139
c-21.0186 21.0312 -48.9775 32.6123 -78.7246 32.6123c-61.3789 0 -111.314 -49.9404 -111.314 -111.326zM324.521 318.43c0 18.3232 -7.12598 35.5293 -20.0674 48.4473c-12.9365 12.959 -30.1436 20.0898 -48.458 20.0898c-37.7852 0 -68.5254 -30.7451 -68.5254 -68.5371
v-30.9346c21.1709 8.6123 44.3047 13.3721 68.5312 13.3721c24.2227 0 47.3525 -4.75781 68.5195 -13.3672v30.9297zM256.001 -45.7559c90.5342 0 164.189 73.6553 164.189 164.189c0 90.5332 -73.6543 164.188 -164.189 164.188s-164.188 -73.6553 -164.188 -164.188
c0 -90.5342 73.6533 -164.189 164.188 -164.189zM302.471 241.888c-3.87793 -0.327148 -7.72363 1.96875 -9.1748 5.60059c-1.70508 4.02832 -0.140625 8.86914 3.54688 11.1855c6.95801 4.37305 16.04 -2.38965 13.6016 -10.3496
c-1.08691 -3.5459 -4.2793 -6.125 -7.97363 -6.43652zM293.296 247.488c-0.232422 0.546875 0.21875 -0.547852 0 0v0zM330.778 247.67c45.959 -26.6455 74.5098 -76.167 74.5098 -129.235c0 -82.3164 -66.9707 -149.287 -149.287 -149.287
s-149.287 66.9707 -149.287 149.287s66.9697 149.287 149.287 149.287c7.1377 0 14.3125 -0.507812 21.3281 -1.5127c4.98633 -0.713867 8.4502 -5.33594 7.7373 -10.3223c-0.714844 -4.98926 -5.34668 -8.44727 -10.3223 -7.73828
c-6.16211 0.881836 -12.4678 1.3291 -18.7432 1.3291c-72.2568 0 -131.043 -58.7861 -131.043 -131.043s58.7852 -131.043 131.043 -131.043s131.043 58.7852 131.043 131.043c0 46.5859 -25.0654 90.0586 -65.416 113.453
c-4.35938 2.52637 -5.84375 8.10938 -3.31641 12.4668c2.52734 4.35938 8.11328 5.84082 12.4668 3.31543z" />
    <glyph glyph-name="uniF103" unicode="&#xf103;" 
d="M395.897 211.854c4.63574 0 8.39355 -3.75781 8.39355 -8.39355v-259.067c0 -4.63574 -3.75781 -8.39355 -8.39355 -8.39355h-279.793c-4.63574 0 -8.39453 3.75781 -8.39453 8.39355v259.067c0 4.63574 3.75879 8.39355 8.39453 8.39355h20.6738v116.922
c0 65.7402 53.4834 119.224 119.223 119.224c31.8555 0 61.7979 -12.4033 84.3096 -34.9258c22.5127 -22.5137 34.9121 -52.4512 34.9121 -84.2979v-85.0254c0 -4.63574 -3.75781 -8.39355 -8.39355 -8.39355h-39.3779c-4.63574 0 -8.39453 3.75781 -8.39453 8.39355
v85.0273c0 16.8457 -6.55957 32.6768 -18.4717 44.5791c-11.8994 11.917 -27.7305 18.4766 -44.5859 18.4766c-34.7686 0 -63.0557 -28.2881 -63.0557 -63.0576v-116.922h202.954zM255.999 431.213c-56.4824 0 -102.434 -45.9521 -102.434 -102.437h0.000976562v-116.922
h22.5898v116.921c0 44.0273 35.8184 79.8457 79.8447 79.8457c21.3438 0 41.3945 -8.30859 56.457 -23.3955c15.0791 -15.0664 23.3867 -35.1162 23.3867 -56.4492v-76.6318h22.5908v76.6318c0 27.3623 -10.6543 53.084 -29.998 72.4277
c-19.3418 19.3516 -45.0664 30.0088 -72.4385 30.0088zM387.503 -47.2129v242.28h-263.005v-242.28h263.005zM225.581 19.3018c-2.75488 0 -5.33496 1.35156 -6.90234 3.61719c-1.56836 2.2666 -1.92383 5.15625 -0.953125 7.73535l12.6992 33.7188
c-7.36523 6.95703 -11.6094 16.6416 -11.6094 26.9941c0 20.5029 16.6797 37.1846 37.1836 37.1846c20.5049 0 37.1846 -16.6816 37.1846 -37.1846c0 -10.3535 -4.24316 -20.0371 -11.6084 -26.9941l12.6992 -33.7188
c0.970703 -2.5791 0.614258 -5.46973 -0.953125 -7.73535c-1.56641 -2.26465 -4.14648 -3.61719 -6.90137 -3.61719h-60.8389zM256.001 111.764c-11.2471 0 -20.3975 -9.14941 -20.3965 -20.3965c0 -6.96289 3.50684 -13.3779 9.38086 -17.1611
c3.3252 -2.14062 4.70508 -6.31348 3.31055 -10.0146l-10.584 -28.1016h36.5781l-10.584 28.1016c-1.39453 3.70117 -0.0146484 7.87402 3.31055 10.0146c5.87402 3.78223 9.38086 10.1973 9.38086 17.1611c0 11.2461 -9.15039 20.3965 -20.3965 20.3965zM366.799 -36.3115
c-4.63574 0 -8.39355 3.75781 -8.39355 8.39355v179.739c0 4.63574 3.75781 8.39355 8.39355 8.39355s8.39355 -3.75781 8.39355 -8.39355v-179.739c0 -4.63574 -3.75781 -8.39355 -8.39355 -8.39355zM366.802 167.379c-3.7334 0 -7.09668 2.56543 -8.08691 6.16211
c-2.04102 7.41016 6.58301 13.5127 12.8779 9.11133c3.00488 -2.10156 4.33008 -6.02734 3.16797 -9.51562c-1.13086 -3.3916 -4.36914 -5.75781 -7.95898 -5.75781z" />
    <glyph glyph-name="uniF104" unicode="&#xf104;" 
d="M407.846 235.416c5.03223 0 9.11133 -4.0791 9.11133 -9.11035v-281.195c0 -5.03125 -4.07812 -9.11035 -9.11133 -9.11035h-303.69c-5.03223 0 -9.11133 4.0791 -9.11133 9.11035v281.195c0 5.03125 4.0791 9.11035 9.11133 9.11035h22.4385v83.1777
c0 71.3555 58.0508 129.406 129.407 129.406c34.5771 0 67.0752 -13.4629 91.5098 -37.9092c24.4365 -24.4365 37.8955 -56.9307 37.8955 -91.4971v-83.1777h22.4395zM256.001 429.778c-61.3086 0 -111.186 -49.877 -111.186 -111.185h0.000976562v-83.1777h24.5205v83.1777
c0 47.7871 38.8789 86.665 86.665 86.665c23.167 0 44.9287 -9.01953 61.2803 -25.3945c16.3652 -16.3545 25.3828 -38.1172 25.3828 -61.2705v-83.1777h24.5205v83.1777c0 29.6982 -11.5635 57.6172 -32.5605 78.6133c-20.9951 21.0049 -48.916 32.5713 -78.624 32.5713z
M324.444 318.594c0 18.2842 -7.12012 35.4688 -20.0508 48.3887c-12.915 12.9346 -30.0977 20.0547 -48.3926 20.0547c-37.7402 0 -68.4434 -30.7041 -68.4434 -68.4434v-83.1777h136.885h0.00195312v83.1777zM398.735 -45.7783v262.974h-285.47v-262.974h285.47z
M222.983 26.417c-2.99121 0 -5.79102 1.46777 -7.49316 3.92676c-1.70117 2.45801 -2.08789 5.5957 -1.0332 8.39453l13.7852 36.5996c-7.99609 7.55176 -12.6025 18.0625 -12.6025 29.2988c0 22.2549 18.1055 40.3613 40.3613 40.3613
c22.2549 0 40.3604 -18.1064 40.3604 -40.3613c0 -11.2373 -4.60742 -21.749 -12.6025 -29.2988l13.7852 -36.5996c1.05469 -2.79883 0.666992 -5.93652 -1.0332 -8.39453c-1.70215 -2.45898 -4.50195 -3.92676 -7.49316 -3.92676h-66.0342zM256.001 126.776
c-12.21 0 -22.1396 -9.93066 -22.1387 -22.1396c0 -7.55762 3.80664 -14.5205 10.1826 -18.626c3.60938 -2.32324 5.10645 -6.85156 3.59277 -10.8701l-11.4873 -30.502h39.7012l-11.4883 30.502c-1.51367 4.0166 -0.0175781 8.54688 3.59277 10.8701
c6.37695 4.10645 10.1836 11.0693 10.1836 18.626c0 12.208 -9.93164 22.1396 -22.1387 22.1396zM376.263 -33.9463c-5.0332 0 -9.11133 4.0791 -9.11133 9.11035v195.091c0 5.03223 4.07812 9.11133 9.11133 9.11133c5.03223 0 9.11035 -4.0791 9.11035 -9.11133v-195.091
c0 -5.03125 -4.07812 -9.11035 -9.11035 -9.11035zM371.144 188.715c-3.4502 2.39453 -4.89453 6.90918 -3.36328 10.8467c1.40332 3.60547 5.06348 5.98828 8.93652 5.77832c3.67969 -0.198242 6.95801 -2.6416 8.15918 -6.13086
c1.20996 -3.51172 0.105469 -7.51172 -2.73145 -9.90723c-3.06543 -2.58887 -7.55371 -2.83691 -10.9102 -0.649414c0.108398 -0.0722656 0.188477 -0.126953 -0.0351562 0.0195312c-0.208984 0.143555 -0.152344 0.107422 -0.0556641 0.0429688z" />
    <glyph glyph-name="uniF105" unicode="&#xf105;" 
d="M407.846 235.416c5.03223 0 9.11133 -4.0791 9.11133 -9.11035v-281.195c0 -5.03125 -4.07812 -9.11035 -9.11133 -9.11035h-303.69c-5.0332 0 -9.11133 4.0791 -9.11133 9.11035v281.195c0 5.03125 4.07812 9.11035 9.11133 9.11035h22.4365v83.1777
c0 71.3555 58.0527 129.406 129.409 129.406c34.5771 0 67.0752 -13.4629 91.5098 -37.9092c24.4365 -24.4365 37.8955 -56.9307 37.8955 -91.4971v-83.1777h22.4395zM255.999 429.778c-61.3066 0 -111.186 -49.877 -111.185 -111.185v-83.1777h24.5215v83.1777
c0 47.7871 38.877 86.665 86.665 86.665c23.166 0 44.9287 -9.01953 61.2793 -25.3945c16.3652 -16.3545 25.3838 -38.1172 25.3838 -61.2705v-83.1777h24.5205v83.1777c0 29.6982 -11.5635 57.6172 -32.5605 78.6133c-20.9951 21.0049 -48.916 32.5713 -78.625 32.5713z
M324.444 318.594c0 18.2842 -7.12012 35.4688 -20.0508 48.3887c-12.915 12.9346 -30.0977 20.0547 -48.3926 20.0547c-37.7402 0 -68.4434 -30.7041 -68.4434 -68.4434v-83.1777h136.885h0.00195312v83.1777zM398.735 -45.7783v262.974h-285.47v-262.974h285.47z
M376.263 -33.9463c-5.0332 0 -9.11133 4.0791 -9.11133 9.11035v195.091c0 5.03223 4.07812 9.11133 9.11133 9.11133c5.03223 0 9.11035 -4.0791 9.11035 -9.11133v-195.091c0 -5.03125 -4.07812 -9.11035 -9.11035 -9.11035zM367.847 192.766
c-0.113281 0.267578 -0.0595703 0.142578 -0.00390625 0.00878906c-1.65332 3.93945 -0.195312 8.69141 3.35645 11.0459c3.54004 2.3457 8.50977 1.9541 11.5039 -1.12988c3.5166 -3.4209 3.5166 -9.45605 0 -12.876c-4.48438 -4.61621 -12.3994 -2.84863 -14.8545 2.94531
c0.0576172 -0.133789 0.112305 -0.263672 -0.00195312 0.00585938zM235.435 28.7744l-44.9961 45.2549c-3.54785 3.56738 -3.53223 9.33594 0.0361328 12.8828c3.56836 3.54883 9.33691 3.53223 12.8838 -0.0361328l37.8213 -38.0361l66.8223 83.0156
c3.15723 3.91699 8.88965 4.53906 12.8115 1.38379c3.91992 -3.15527 4.53906 -8.88965 1.38477 -12.8105l-73.2061 -90.9443c-1.625 -2.01855 -4.03125 -3.24902 -6.62012 -3.38574c-0.15918 -0.0078125 -0.319336 -0.0117188 -0.477539 -0.0117188
c-2.41797 0 -4.74609 0.962891 -6.45996 2.6875z" />
    <glyph glyph-name="uniF10A" unicode="&#xf10a;" 
d="M385.565 246.733c32.6631 -32.9824 52.8682 -78.3232 52.8682 -128.3c0 -100.594 -81.8398 -182.434 -182.434 -182.434s-182.434 81.8398 -182.434 182.434c0 49.9756 20.2061 95.3174 52.8691 128.299v71.6973c0 71.4453 58.1211 129.57 129.56 129.57
c34.624 0 67.1641 -13.4805 91.6279 -37.958c24.4668 -24.4658 37.9424 -57.002 37.9424 -91.6123v-71.6963zM144.682 318.43v-55.5693c7.71777 5.96191 15.9199 11.3301 24.5439 16.0137v39.5557c0 47.8506 38.9248 86.7812 86.7705 86.7812
c23.1934 0 44.9844 -9.03125 61.3574 -25.4336c16.3838 -16.3555 25.4121 -38.1455 25.4121 -61.3477v-39.5488c8.62988 -4.68457 16.833 -10.0537 24.5557 -16.0195v55.5684c0 29.7373 -11.5781 57.6914 -32.6016 78.7139
c-21.0195 21.0312 -48.9766 32.6123 -78.7246 32.6123c-61.3779 0 -111.313 -49.9404 -111.313 -111.326zM324.521 318.43c0 18.3232 -7.12598 35.5293 -20.0674 48.4473c-12.9375 12.959 -30.1436 20.0898 -48.458 20.0898c-37.7861 0 -68.5264 -30.7451 -68.5264 -68.5371
v-30.9346c21.1709 8.6123 44.3057 13.3721 68.5322 13.3721c24.2236 0 47.3525 -4.75781 68.5195 -13.3672v30.9297zM256.001 -45.7559c90.5342 0 164.188 73.6553 164.188 164.189c0 90.5332 -73.6543 164.188 -164.188 164.188
c-90.5332 0 -164.188 -73.6553 -164.188 -164.188c0 -90.5342 73.6533 -164.189 164.188 -164.189zM296.653 243.389c-3.53711 2.3291 -4.94336 6.94141 -3.43848 10.8701c1.33301 3.47852 4.77148 5.83301 8.49902 5.83301c3.89551 0 7.44043 -2.55957 8.66016 -6.25781
c1.1377 -3.45215 0.0644531 -7.39355 -2.69922 -9.76465c-3.08691 -2.64941 -7.63086 -2.91211 -11.0215 -0.680664zM330.779 247.67c45.96 -26.6455 74.5088 -76.167 74.5107 -129.235c0 -82.3164 -66.9707 -149.287 -149.288 -149.287
c-82.3164 0 -149.287 66.9707 -149.287 149.287s66.9697 149.287 149.287 149.287c7.1377 0 14.3125 -0.507812 21.3281 -1.5127c4.98633 -0.713867 8.4502 -5.33594 7.73828 -10.3223c-0.71582 -4.98926 -5.34766 -8.44727 -10.3232 -7.73828
c-6.16113 0.881836 -12.4678 1.3291 -18.7432 1.3291c-72.2578 0 -131.043 -58.7861 -131.043 -131.043s58.7852 -131.043 131.043 -131.043c72.2588 0 131.044 58.7852 131.044 131.043c0 46.5859 -25.0664 90.0586 -65.417 113.453
c-4.3584 2.52637 -5.84375 8.10938 -3.31641 12.4668c2.52734 4.35938 8.11328 5.84082 12.4668 3.31543zM216.247 119.504l37.8682 -38.083l66.9062 83.1191c3.16113 3.92383 8.90039 4.54492 12.8262 1.38574c3.9248 -3.15918 4.5459 -8.90137 1.38672 -12.8262
l-73.2969 -91.0576c-1.62695 -2.02148 -4.03613 -3.25391 -6.62793 -3.38965c-0.160156 -0.00878906 -0.320312 -0.0126953 -0.478516 -0.0126953c-2.42188 0 -4.75195 0.964844 -6.46777 2.69043l-45.0527 45.3105c-3.55273 3.57227 -3.53711 9.34766 0.0371094 12.8994
c3.57227 3.55273 9.34766 3.53613 12.8994 -0.0361328z" />
    <glyph glyph-name="uniF10B" unicode="&#xf10b;" 
d="M385.565 246.733c32.6631 -32.9824 52.8682 -78.3232 52.8682 -128.3c0 -100.594 -81.8398 -182.434 -182.434 -182.434s-182.434 81.8398 -182.434 182.434c0 49.9756 20.2061 95.3174 52.8691 128.299v71.6973c0 71.4453 58.1211 129.57 129.56 129.57
c34.624 0 67.1641 -13.4805 91.6279 -37.958c24.4668 -24.4658 37.9424 -57.002 37.9424 -91.6123v-71.6963zM144.682 318.43v-55.5693c7.71777 5.96191 15.9199 11.3301 24.5439 16.0137v39.5557c0 47.8506 38.9248 86.7812 86.7705 86.7812
c23.1934 0 44.9844 -9.03125 61.3574 -25.4336c16.3838 -16.3555 25.4121 -38.1455 25.4121 -61.3477v-39.5488c8.62988 -4.68457 16.833 -10.0537 24.5557 -16.0195v55.5684c0 29.7373 -11.5781 57.6914 -32.6016 78.7139
c-21.0195 21.0312 -48.9766 32.6123 -78.7246 32.6123c-61.3779 0 -111.313 -49.9404 -111.313 -111.326zM324.521 318.43c0 18.3232 -7.12598 35.5293 -20.0674 48.4473c-12.9375 12.959 -30.1436 20.0898 -48.458 20.0898c-37.7861 0 -68.5264 -30.7451 -68.5264 -68.5371
v-30.9346c21.1709 8.6123 44.3057 13.3721 68.5322 13.3721c24.2236 0 47.3525 -4.75781 68.5195 -13.3672v30.9297zM256.001 -45.7559c90.5342 0 164.188 73.6553 164.188 164.189c0 90.5332 -73.6543 164.188 -164.188 164.188
c-90.5332 0 -164.188 -73.6553 -164.188 -164.188c0 -90.5342 73.6533 -164.189 164.188 -164.189zM301.713 241.856c-4.05859 0 -7.70703 2.79102 -8.78906 6.69727c-1.01758 3.67188 0.446289 7.73242 3.58105 9.90137c3.41992 2.36523 8.15527 2.10938 11.2725 -0.662109
c6.15723 -5.47266 2.11816 -15.9365 -6.06445 -15.9365zM330.779 247.67c45.96 -26.6455 74.5088 -76.167 74.5107 -129.235c0 -82.3164 -66.9707 -149.287 -149.288 -149.287c-82.3164 0 -149.287 66.9707 -149.287 149.287s66.9697 149.287 149.287 149.287
c7.1377 0 14.3125 -0.507812 21.3281 -1.5127c4.98633 -0.713867 8.4502 -5.33594 7.73828 -10.3223c-0.71582 -4.98926 -5.34766 -8.44727 -10.3232 -7.73828c-6.16113 0.881836 -12.4678 1.3291 -18.7432 1.3291c-72.2578 0 -131.043 -58.7861 -131.043 -131.043
s58.7852 -131.043 131.043 -131.043c72.2588 0 131.044 58.7852 131.044 131.043c0 46.5859 -25.0664 90.0586 -65.417 113.453c-4.3584 2.52637 -5.84375 8.10938 -3.31641 12.4668c2.52734 4.35938 8.1123 5.84082 12.4668 3.31543zM315.969 178.4
c3.5625 -3.5625 3.5625 -9.33789 0.00195312 -12.8994l-47.0664 -47.0664l47.0664 -47.0664c3.5625 -3.5625 3.5625 -9.33691 0 -12.8994c-1.78125 -1.78223 -4.11719 -2.67285 -6.45117 -2.67285s-4.66895 0.890625 -6.45117 2.67285l-47.0645 47.0645l-47.0654 -47.0645
c-1.78223 -1.78223 -4.11719 -2.67285 -6.45117 -2.67285s-4.66895 0.890625 -6.45117 2.67285c-3.5625 3.5625 -3.5625 9.33691 0 12.8994l47.0664 47.0664l-47.0664 47.0664c-3.5625 3.5625 -3.5625 9.33691 0 12.8994s9.33789 3.5625 12.9014 0l47.0645 -47.0645
l47.0654 47.0645c3.5625 3.5625 9.33789 3.5625 12.9014 0z" />
  </font>
</defs></svg>
